version="1.10.*"
tags={
	"Balance"
	"Gameplay"
	"Map"
	"National Focuses"
	"Technologies"
	"Historical"
	"Military"
	"Events"
	"Fixes"
}
name="GDU 1.10: Gotterdammerung Multiplayer Mod"
replace_path="tutorial"
replace_path="history/states"
replace_path="history/countries"
replace_path="history/units"
replace_path="events"
replace_path="common/abilities"
replace_path="common/aces"
replace_path="common/ai_equipment"
replace_path="common/ai_focuses"
replace_path="common/ai_peace"
replace_path="common/ai_strategy"
replace_path="common/ai_strategy_plans"
replace_path="common/ai_templates"
replace_path="common/autonomous_states"
replace_path="common/bookmarks"
replace_path="common/buildings"
replace_path="common/continuous_focus"
replace_path="common/countries"
replace_path="common/country_leader"
replace_path="common/country_tag_aliases"
replace_path="common/country_tags"
replace_path="common/decisions"
replace_path="common/decisions/categories"
replace_path="common/difficulty_settings"
replace_path="common/dynamic_modifiers"
replace_path="common/game_rules"
replace_path="common/idea_tags"
replace_path="common/ideas"
replace_path="common/ideologies"
replace_path="common/intelligence_agencies"
replace_path="common/intelligence_agency_upgrades"
replace_path="common/modifier_definitions"
replace_path="common/modifiers"
replace_path="common/mtth"
replace_path="common/names"
replace_path="common/national_focus"
replace_path="common/occupation_laws"
replace_path="common/on_actions"
replace_path="common/operation_phases"
replace_path="common/operation_tokens"
replace_path="common/operations"
replace_path="common/opinion_modifiers"
replace_path="common/resistance_activity"
replace_path="common/resistance_compliance_modifiers"
replace_path="common/resources"
replace_path="common/scorers"
replace_path="common/scorers/country"
replace_path="common/scripted_effects"
replace_path="common/scripted_guis"
replace_path="common/scripted_localisation"
replace_path="common/scripted_triggers"
replace_path="common/state_category"
replace_path="common/technologies"
replace_path="common/technology_sharing"
replace_path="common/technology_tags"
replace_path="common/terrain"
replace_path="common/timed_activities"
replace_path="common/unit_tags"
replace_path="common/units/codenames_operatives"
replace_path="common/units/equipment"
replace_path="common/units/names"
replace_path="common/units/names_divisions"
replace_path="common/units/names_ships"
replace_path="map/strategicregions"
replace_path="map/supplyareas"
supported_version="1.10.*"
remote_file_id="1758094609"