
strategic_region={
	id=121
	name="STRATEGICREGION_121"
	provinces={
		373 602 605 722 749 774 777 779 983 1299 1341 1356 1426 1657 1764 1769 1782 1785 3605 3608 3635 3640 3661 3775 3778 3911 4419 4666 4720 4769 4775 4784 4787 4869 4875 6510 6607 6630 6740 6797 7366 7435 7683 7758 7788 7807 7810 7875 7893 7899 9467 9480 9580 9667 10249 10534 10700 10715 10718 11682 12205 12223 12276 12278 12503 12505 12582 12680 12698 13159
	}
	weather={

	}
}
