
strategic_region={
	id=134
	name="STRATEGICREGION_134"
	provinces={
		654 666 670 672 683 685 700 712 728 772 1450 1455 1467 1530 1536 1539 1599 1610 1636 1896 2071 3564 3653 3656 3658 3667 3668 3672 3682 3698 3711 4458 4463 4473 4477 4534 4545 4553 4605 4609 4614 4637 4660 4755 4825 4901 6436 6642 6669 6671 6674 6689 6692 6701 6702 6721 6730 6733 6748 6763 6997 7495 7554 7624 7661 7969 9626 9628 9632 9645 9647 9649 9663 9674 9702 9715 10523 11599 11609 11614 11617 11632 11645 11647 11661 11664 11674 11690 11704 11708 12309 12320 12380 12434 12441 12450 12793 12861 13123 
	}
	weather={
		period={
			between={ 0.0 30.0 }
			temperature={ -15.0 0.0 }
			temperature_day_night={ -5.0 5.0 }
			no_phenomenon=0.700
			rain_light=0.000
			rain_heavy=0.000
			snow=0.100
			blizzard=0.000
			arctic_water=0.000
			mud=0.667
			sandstorm=0.000
			min_snow_level=0.100
		}
		period={
			between={ 0.1 27.1 }
			temperature={ -10.0 1.0 }
			temperature_day_night={ -5.0 5.0 }
			no_phenomenon=0.700
			rain_light=0.000
			rain_heavy=0.000
			snow=0.050
			blizzard=0.000
			arctic_water=0.000
			mud=0.667
			sandstorm=0.000
			min_snow_level=0.100
		}
		period={
			between={ 0.2 30.2 }
			temperature={ -5.0 5.0 }
			temperature_day_night={ -5.0 5.0 }
			no_phenomenon=0.700
			rain_light=0.250
			rain_heavy=0.100
			snow=0.000
			blizzard=0.000
			arctic_water=0.000
			mud=0.667
			sandstorm=0.000
			min_snow_level=0.000
		}
		period={
			between={ 0.3 29.3 }
			temperature={ 0.0 15.0 }
			temperature_day_night={ -5.0 5.0 }
			no_phenomenon=0.700
			rain_light=0.250
			rain_heavy=0.100
			snow=0.000
			blizzard=0.000
			arctic_water=0.000
			mud=0.667
			sandstorm=0.000
			min_snow_level=0.000
		}
		period={
			between={ 0.4 30.4 }
			temperature={ 5.0 20.0 }
			temperature_day_night={ -5.0 5.0 }
			no_phenomenon=0.600
			rain_light=0.250
			rain_heavy=0.100
			snow=0.000
			blizzard=0.000
			arctic_water=0.000
			mud=0.667
			sandstorm=0.000
			min_snow_level=0.000
		}
		period={
			between={ 0.5 29.5 }
			temperature={ 10.0 25.0 }
			temperature_day_night={ -5.0 5.0 }
			no_phenomenon=0.500
			rain_light=0.300
			rain_heavy=0.200
			snow=0.000
			blizzard=0.000
			arctic_water=0.000
			mud=0.667
			sandstorm=0.500
			min_snow_level=0.000
		}
		period={
			between={ 0.6 30.6 }
			temperature={ 25.0 35.0 }
			temperature_day_night={ -5.0 5.0 }
			no_phenomenon=0.500
			rain_light=0.300
			rain_heavy=0.100
			snow=0.000
			blizzard=0.000
			arctic_water=0.000
			mud=0.667
			sandstorm=0.500
			min_snow_level=0.000
		}
		period={
			between={ 0.7 30.7 }
			temperature={ 25.0 35.0 }
			temperature_day_night={ -5.0 5.0 }
			no_phenomenon=0.500
			rain_light=0.200
			rain_heavy=0.050
			snow=0.000
			blizzard=0.000
			arctic_water=0.000
			mud=0.667
			sandstorm=0.500
			min_snow_level=0.000
		}
		period={
			between={ 0.8 29.8 }
			temperature={ 12.0 22.0 }
			temperature_day_night={ -5.0 5.0 }
			no_phenomenon=0.500
			rain_light=0.200
			rain_heavy=0.050
			snow=0.000
			blizzard=0.000
			arctic_water=0.000
			mud=0.667
			sandstorm=0.000
			min_snow_level=0.000
		}
		period={
			between={ 0.9 30.9 }
			temperature={ 12.0 22.0 }
			temperature_day_night={ -5.0 5.0 }
			no_phenomenon=0.500
			rain_light=0.100
			rain_heavy=0.050
			snow=0.000
			blizzard=0.000
			arctic_water=0.000
			mud=0.667
			sandstorm=0.000
			min_snow_level=0.000
		}
		period={
			between={ 0.10 29.10 }
			temperature={ -5.0 10.0 }
			temperature_day_night={ -5.0 5.0 }
			no_phenomenon=0.600
			rain_light=0.100
			rain_heavy=0.050
			snow=0.000
			blizzard=0.000
			arctic_water=0.000
			mud=0.667
			sandstorm=0.000
			min_snow_level=0.000
		}
		period={
			between={ 0.11 30.11 }
			temperature={ -15.0 0.0 }
			temperature_day_night={ -5.0 5.0 }
			no_phenomenon=0.700
			rain_light=0.100
			rain_heavy=0.050
			snow=0.100
			blizzard=0.000
			arctic_water=0.000
			mud=0.667
			sandstorm=0.000
			min_snow_level=0.000
		}
	}
}
