
strategic_region={
	id=185
	name="STRATEGICREGION_185"
	provinces={
		697 1846 1874 2151 2176 2196 2206 2216 2255 2281 2308 4171 4851 5180 5199 5221 5224 7842 7872 8144 8182 8183 8201 8205 10538 10594 10845 10929 10930 10932 10988 11017 12504 12677 12908 12911 12944 12967 12971 12986 13173 13209 
	}
	weather={

	}
}
