
strategic_region={
	id=218
	name="STRATEGICREGION_218"
	provinces={
		1216 1229 1239 1272 1276 1287 1309 1360 1363 1375 1384 1391 1459 1591 1680 1694 1749 1818 1840 1864 1879 1919 2058 4232 4250 4277 4316 4333 4340 4369 4651 4661 4674 4685 4686 4764 4867 4923 5062 7224 7233 7350 7392 7597 7657 7706 7708 7711 7784 7795 8027 10140 10179 10187 10196 10202 10218 10508 10550 10601 10610 11687 12115 12340 12370 12385 12487 12511 12583 12635 12658 12662 13148
	}
	weather={

	}
}
