ideas = {

	country = {
			
		george_v = {
			
			allowed = {
				original_tag = ENG
			}

			allowed_civil_war = {
				NOT ={
					has_government = communism
				}
				NOT = {
					any_other_country = {
						original_tag = ENG
						has_government = democratic 
						NOT = {
							tag = ROOT
						}
					}
				}
			}
			
			removal_cost = -1
			
			traits = { popular_figurehead }
			

		}

		ENG_synthetic_rubber = {
			
			
			allowed = {
				always = yes
			}

			allowed_civil_war = {
				always = yes
			}

			removal_cost = -1
			
			picture = FRA_motorized_focus
			
			modifier = {
				production_speed_synthetic_refinery_factor = 0.20
			}
		}	
		
		ENG_war_preparation = {
			name = ENG_war_preparation
			allowed = {
				always = yes
			}

			allowed_civil_war = {
				always = yes
			}

			removal_cost = -1
		
			picture = generic_victors_of_ww1
			modifier = {
				production_lack_of_resource_penalty_factor = -1
			}
		}
		
		ENG_king_edward = {
			
			allowed = {
				original_tag = ENG
			}

			allowed_civil_war = {
				NOT ={
					has_government = communism
				}
				NOT = {
					any_other_country = {
						original_tag = ENG
						has_government = democratic 
						NOT = {
							tag = ROOT
						}
					}
				}
			}

			picture = king_edward
			
			removal_cost = -1
			
			modifier = {
				stability_weekly = -0.001				
			}
			

		}

		ENG_king_edward_fascism = {
			
			allowed = {
				original_tag = ENG
			}

			picture = king_edward
			
			removal_cost = -1
			
			allowed_civil_war = {
				has_government = fascism
			}


			modifier = {
				stability_factor = 0.05
				drift_defence_factor = 0.5
			}
		}

		ENG_george_vi = {
			
			allowed = {
				original_tag = ENG
			}

			allowed_civil_war = {
				NOT ={
					has_government = communism
				}
				NOT = {
					any_other_country = {
						original_tag = ENG
						has_government = democratic 
						NOT = {
							tag = ROOT
						}
					}
				}
			}

			picture = george_vi
			
			removal_cost = -1
			
			traits = { popular_figurehead }
			
		}

		ENG_the_war_to_end_all_wars = {
			
			allowed = {
				always = no
			}

			allowed_civil_war = {
				NOT = {
					has_government = fascism
				}
			}
			
			removal_cost = -1
						
			modifier = {
				army_morale_factor = -0.10
			}
		}
		
		stiff_upper_lip = {
			
			allowed = {
				always = no
			}
			
			removal_cost = -1
			
			allowed_civil_war = {
				always = yes
			}
			
			modifier = {
				drift_defence_factor = 0.5
				production_speed_dockyard_factor = 0.15
			}
			
			rule = {
				can_create_factions = yes
			}			
		}

		stiff_upper_lip2 = {
			
			allowed = {
				always = no
			}
			
			picture = stiff_upper_lip
			
			removal_cost = -1
			
			allowed_civil_war = {
				always = yes
			}
			
			modifier = {
				drift_defence_factor = 0.5
				production_speed_dockyard_factor = 0.15				
			}
			
			rule = {
				can_create_factions = yes
			}			
		}		
		
		british_austerity_idea = {
			
			allowed = {
				always = no
			}
			
			removal_cost = -1

			allowed_civil_war = {
				always = yes
			}

			picture = generic_goods_red_bonus
			
			modifier = {
				consumer_goods_factor = -0.05
				min_export = -0.20
			}
		}
		
		ENG_colonial_elite = {
			
			allowed = {
				always = no
			}

			allowed_civil_war = {
				NOT = {
					has_government = communism
				}
			}

			picture = generic_research_bonus
			
			removal_cost = -1
			
			modifier = {
				research_speed_factor = 0.15
			}
		}
		
		british_fighter_discount = {
			
			allowed = {
				always = no
			}

			allowed_civil_war = {
				always = yes
			}
			
			picture = generic_air_bonus

			removal_cost = -1
			
			equipment_bonus = {
				fighter_equipment = {
					build_cost_ic = -0.1 instant = yes
				}
			}
		}
		
		british_arms_discount = {
			
			allowed = {
				always = no
			}
			
			allowed_civil_war = {
				NOT = {
					has_government = communism
				}
			}

			removal_cost = -1

			picture = generic_infantry_bonus
			
			equipment_bonus = {
				infantry_equipment = {
					build_cost_ic = -0.1 instant = yes
				}
			}
		}
		
		finest_hour = {

			allowed = {
				always = no
			}

			removal_cost = -1

			allowed_civil_war = {
				always = yes
			}

			picture = stiff_upper_lip

			equipment_bonus = {
				fighter_equipment = {
					air_agility = 0.05
					air_attack = 0.05 
					air_range = 0.05
					instant = yes
				}
			}
			modifier = {
				army_org_factor = 0.2
				army_morale_factor = 0.1
			}

		}
		
		finest_hour_com = {

			allowed = {
				always = no
			}

			removal_cost = -1

			allowed_civil_war = {
				always = yes
			}

			picture = stiff_upper_lip

				modifier = {
					army_org_factor = 0.2
					army_morale_factor = 0.1
				}

		}
		
		british_convoy_discount = {
			
			allowed = {
				always = no
			}

			allowed_civil_war = {
				always = yes
			}
			
			removal_cost = -1

			picture = generic_navy_bonus
			
			equipment_bonus = {
				ship_hull_light = {
					build_cost_ic = -0.15 instant = yes
				}
				convoy = {
					build_cost_ic = -0.15 instant = yes
				}
			}
		}
		
		indian_independence_promised_idea  = {
			
			allowed = {
				always = no
			}

			allowed_civil_war = {
				has_government = democratic
			}

			picture = generic_morale_bonus
			
			removal_cost = -1
			
			modifier = {
				stability_factor = -0.1
			}
		}

		ENG_continuation_of_politics = {
			
			allowed = {
				always = no
			}

			allowed_civil_war = {
				always = yes
			}

			rule = {
				can_boost_other_ideologies = yes
			}

			picture = FRA_scw_intervention_republicans_focus
			
			removal_cost = -1			
			
		}

		ENG_special_air_service_idea = {

			name = ENG_special_air_service

			allowed = {
				always = no
			}

			allowed_civil_war = {
				always = yes
			}

			modifier = {

			}

			picture = eng_special_air_service
			
			removal_cost = -1			
			
		}

		ENG_chiefs_of_staff_committee_idea = {

			name = ENG_chiefs_of_staff_committee

			allowed = {
				always = no
			}

			allowed_civil_war = {
				always = yes
			}

			modifier = {
				amphibious_invasion_defence = 0.05
				planning_speed = 0.1
			}

			picture = eng_chiefs_of_staff_committee
			
			removal_cost = -1			
			
		}

		ENG_guided_by_britain_1 = {

			name = ENG_guided_by_britain

			allowed = {
				always = no
			}

			allowed_civil_war = {
				always = yes
			}

			modifier = {
				political_advisor_cost_factor = -0.15
				trade_laws_cost_factor = -0.15
				mobilization_laws_cost_factor = -0.15
				economy_cost_factor = -0.15
				experience_gain_navy = 0.05
				production_speed_dockyard_factor = 0.05
			}
			
			research_bonus = {
				naval_equipment = 0.35
				naval_doctrine = 0.35				
			}	
			

			picture = eng_guided_by_britain
			
			removal_cost = -1	

		}

		ENG_guided_by_britain_2 = {

			name = ENG_guided_by_britain

			allowed = {
				always = no
			}

			allowed_civil_war = {
				always = yes
			}

			modifier = {
				political_advisor_cost_factor = -0.15
				trade_laws_cost_factor = -0.15
				mobilization_laws_cost_factor = -0.15
				economy_cost_factor = -0.15
			}

			picture = eng_guided_by_britain
			
			removal_cost = -1	

		}

		ENG_guided_by_britain_raj_1 = {

			name = ENG_guided_by_britain

			allowed = {
				always = no
			}

			allowed_civil_war = {
				always = yes
			}

			modifier = {
				political_advisor_cost_factor = -0.33
				trade_laws_cost_factor = -0.33
				mobilization_laws_cost_factor = -0.33
				economy_cost_factor = -0.33
			}

			picture = eng_guided_by_britain
			
			removal_cost = -1	

		}

		ENG_guided_by_britain_raj_2 = {

			name = ENG_guided_by_britain

			allowed = {
				always = no
			}

			allowed_civil_war = {
				always = yes
			}

			modifier = {
				political_advisor_cost_factor = -0.33
				trade_laws_cost_factor = -0.33
				mobilization_laws_cost_factor = -0.33
				economy_cost_factor = -0.33
				autonomy_gain = 2
			}

			picture = eng_guided_by_britain
			
			removal_cost = -1	

		}

		ENG_steady_as_she_goes_idea = {

			name = ENG_steady_as_she_goes

			allowed = {
				always = no
			}

			allowed_civil_war = {
				always = yes
			}

			modifier = {
				democratic_drift = 0.1
				stability_weekly = 0.002
			}

			picture = eng_steady_as_she_goes
			
			removal_cost = -1	

		}

		ENG_prepare_for_the_inevitable_idea = {

			name = ENG_prepare_for_the_inevitable

			allowed = {
				always = no
			}

			allowed_civil_war = {
				always = yes
			}

			modifier = {
				production_speed_arms_factory_factor = 0.1
				production_speed_dockyard_factor = 0.1 
				industrial_capacity_factory = 0.05
				industrial_capacity_dockyard = 0.05				
			}

			picture = generic_production_bonus
			
			removal_cost = -1
		}

		ENG_the_sun_never_sets_idea = {

			name = ENG_the_sun_never_sets

			allowed = {
				always = no
			}

			allowed_civil_war = {
				always = yes
			}

			equipment_bonus = {
				screen_ship = {
					naval_range = 0.15
					instant = yes
				}
				carrier = {
					naval_range = 0.15
					instant = yes
				}
				capital_ship = {
					naval_range = 0.15
					instant = yes
				}
				submarine = {
					naval_range = 0.15
					instant = yes
				}
			}

			picture = eng_the_sun_never_sets
			
			removal_cost = -1	

		}

		ENG_restoring_public_order = {

			allowed = {
				always = no
			}

			allowed_civil_war = {
				always = yes
			}

			modifier = {
				stability_weekly = 0.01
			}

			picture = generic_intel_bonus
			
			removal_cost = -1	

		}

		ENG_support_for_the_king_idea = {

			allowed = {
				always = no
			}

			allowed_civil_war = {
				always = yes
			}

			modifier = {
				stability_weekly = 0.01
				neutrality_drift = 0.1
			}

			picture = ast_abandon_the_westminster_system
			
			removal_cost = -1
		}

		ENG_service_overseas_idea = {

			name = uk_service_focus

			allowed = {
				always = no
			}

			allowed_civil_war = {
				has_government = democratic
			}
			
			modifier = {
				non_core_manpower = 0.07
			}

			picture = eng_service_overseas

			removal_cost = -1
		}

		ENG_indian_autonomy_idea = {

			name = ENG_indian_autonomy

			allowed = {
				always = no
			}

			allowed_civil_war = {
				always = yes
			}
			
			modifier = {
				political_power_factor = -0.15
			}

			picture = generic_pp_unity_bonus

			removal_cost = -1
		}

		ENG_indian_autonomy_RAJ_idea = {

			name = ENG_indian_autonomy

			allowed = {
				always = no
			}

			allowed_civil_war = {
				always = yes
			}
			
			modifier = {
				autonomy_gain = 0.5
			}

			picture = generic_pp_unity_bonus

			removal_cost = -1
		}

		ENG_indian_autonomy_RAJ_idea_2 = {

			name = ENG_indian_autonomy

			allowed = {
				always = no
			}

			allowed_civil_war = {
				has_government = democratic
			}
			
			modifier = {
				democratic_drift = 0.2
			}

			picture = generic_pp_unity_bonus

			removal_cost = -1
		}

		ENG_imperial_conference_defense_dominion = {

			allowed = {
				always = no
			}

			allowed_civil_war = {
				always = yes
			}
			
			modifier = {
				industrial_capacity_factory = 0.07
				industrial_capacity_dockyard = 0.07
			}

			picture = generic_war_preparation

			removal_cost = -1
		}

		ENG_imperial_conference_defense_1 = {

			name = ENG_imperial_conference_defense_dominion

			allowed = {
				always = no
			}

			allowed_civil_war = {
				always = yes
			}
			
			modifier = {
				industrial_capacity_factory = 0.02
				industrial_capacity_dockyard = 0.02
			}

			picture = generic_war_preparation

			removal_cost = -1
		}

		ENG_imperial_conference_defense_2 = {

			name = ENG_imperial_conference_defense_dominion

			allowed = {
				always = no
			}

			allowed_civil_war = {
				always = yes
			}
			
			modifier = {
				industrial_capacity_factory = 0.04
				industrial_capacity_dockyard = 0.04
			}

			picture = generic_war_preparation

			removal_cost = -1
		}

		ENG_imperial_conference_defense_3 = {

			name = ENG_imperial_conference_defense_dominion

			allowed = {
				always = no
			}

			allowed_civil_war = {
				always = yes
			}
			
			modifier = {
				industrial_capacity_factory = 0.06
				industrial_capacity_dockyard = 0.06
			}

			picture = generic_war_preparation

			removal_cost = -1
		}

		ENG_imperial_conference_defense_4 = {

			name = ENG_imperial_conference_defense_dominion

			allowed = {
				always = no
			}

			allowed_civil_war = {
				always = yes
			}
			
			modifier = {
				industrial_capacity_factory = 0.08
				industrial_capacity_dockyard = 0.08
			}

			picture = generic_war_preparation

			removal_cost = -1
		}

		ENG_imperial_conference_defense_5 = {

			name = ENG_imperial_conference_defense_dominion

			allowed = {
				always = no
			}

			allowed_civil_war = {
				always = yes
			}
			
			modifier = {
				industrial_capacity_factory = 0.10
				industrial_capacity_dockyard = 0.10
			}

			picture = generic_war_preparation

			removal_cost = -1
		}

		ENG_imperial_conference_economy_dominion = {

			allowed = {
				always = no
			}

			allowed_civil_war = {
				always = yes
			}
			
			modifier = {
				production_speed_industrial_complex_factor = 0.08
				production_speed_arms_factory_factor = 0.08
				production_speed_dockyard_factor = 0.08
			}

			picture = generic_exploit_mines

			removal_cost = -1
		}

		ENG_imperial_conference_economy_1 = {

			name = ENG_imperial_conference_economy_dominion

			allowed = {
				always = no
			}

			allowed_civil_war = {
				always = yes
			}
			
			modifier = {
				production_speed_industrial_complex_factor = 0.02
				production_speed_arms_factory_factor = 0.02
				production_speed_dockyard_factor = 0.02
			}

			picture = generic_exploit_mines

			removal_cost = -1
		}
		ENG_imperial_conference_economy_2 = {

			name = ENG_imperial_conference_economy_dominion

			allowed = {
				always = no
			}

			allowed_civil_war = {
				always = yes
			}
			
			modifier = {
				production_speed_industrial_complex_factor = 0.04
				production_speed_arms_factory_factor = 0.04
				production_speed_dockyard_factor = 0.04
			}

			picture = generic_exploit_mines

			removal_cost = -1
		}
		ENG_imperial_conference_economy_3 = {

			name = ENG_imperial_conference_economy_dominion

			allowed = {
				always = no
			}

			allowed_civil_war = {
				always = yes
			}
			
			modifier = {
				production_speed_industrial_complex_factor = 0.06
				production_speed_arms_factory_factor = 0.06
				production_speed_dockyard_factor = 0.06
			}

			picture = generic_exploit_mines

			removal_cost = -1
		}
		ENG_imperial_conference_economy_4 = {

			name = ENG_imperial_conference_economy_dominion

			allowed = {
				always = no
			}

			allowed_civil_war = {
				always = yes
			}
			
			modifier = {
				production_speed_industrial_complex_factor = 0.08
				production_speed_arms_factory_factor = 0.08
				production_speed_dockyard_factor = 0.08
			}

			picture = generic_exploit_mines

			removal_cost = -1
		}

		ENG_imperial_conference_economy_5 = {

			name = ENG_imperial_conference_economy_dominion

			allowed = {
				always = no
			}

			allowed_civil_war = {
				always = yes
			}
			
			modifier = {
				production_speed_industrial_complex_factor = 0.1
				production_speed_arms_factory_factor = 0.1
				production_speed_dockyard_factor = 0.1
			}

			picture = generic_exploit_mines

			removal_cost = -1
		}

		ENG_fortify_the_empire_1 = {

			name = ENG_fortify_the_empire

			picture = generic_fortify_the_borders
		
			allowed = {
				always = no
			}

			allowed_civil_war = {
				always = yes
			}
			
			removal_cost = -1

			modifier = {
				production_speed_bunker_factor = 0.1
				production_speed_coastal_bunker_factor = 0.1
			}
		}

		ENG_fortify_the_empire_2 = {

			name = ENG_fortify_the_empire

			picture = generic_fortify_the_borders
		
			allowed = {
				always = no
			}

			allowed_civil_war = {
				always = yes
			}
			
			removal_cost = -1

			modifier = {
				production_speed_bunker_factor = 0.1
				production_speed_coastal_bunker_factor = 0.1
			}
		}

		ENG_british_commonwealth_air_training_plan = {

			picture = generic_air_bonus
		
			allowed = {
				always = no
			}

			allowed_civil_war = {
				always = yes
			}
			
			removal_cost = -1

			modifier = {
				experience_gain_air = 0.1
				experience_gain_air_factor = 0.1
				air_mission_xp_gain_factor = 0.1
				air_training_xp_gain_factor = 0.2
			}
		}

		ENG_joint_air_training_scheme = {

			picture = generic_air_bonus
		
			allowed = {
				always = no
			}


			allowed_civil_war = {
				always = yes
			}
			
			removal_cost = -1

			modifier = {
				experience_gain_air = 0.05
				experience_gain_air_factor = 0.1
				air_mission_xp_gain_factor = 0.1
				air_training_xp_gain_factor = 0.2
			}
		}

		ENG_anti_submarine_training_school = {

			picture = generic_coastal_defense_ships2
		
			allowed = {
				always = no
			}

			allowed_civil_war = {
				always = yes
			}
			
			removal_cost = -1

			modifier = {
				experience_gain_destroyer_combat_factor = 0.15
				experience_gain_destroyer_training_factor = 0.15
			}
		}

		ENG_secure_the_imperial_shipping_routes = {

			picture = generic_coastal_defense_ships
			
			allowed = {
				always = no
			}

			allowed_civil_war = {
				NOT = { has_government = communism }
			}
			
			removal_cost = -1
						
			equipment_bonus = {
				ship_hull_cruiser = {
					build_cost_ic = -0.1 instant = yes
				}
			}
		}

		ENG_expand_the_repair_yards = {

			picture = generic_coastal_defense_ships
			
			allowed = {
				always = no
			}

			allowed_civil_war = {
				NOT = { has_government = communism }
			}
			
			removal_cost = -1
						
			modifier = {
				refit_ic_cost = -0.05
				refit_speed = 0.15
				repair_speed_factor = 0.15
			}
		}

	}
	
	
	political_advisor = {
			
		clement_attlee = {
			
			allowed = {
				original_tag = ENG
			}
			
			traits = { democratic_reformer }
	
			do_effect = {
				NOT = {
					has_government = democratic
				}
			}
			
			ai_will_do = {
				factor = 0
			}
		}
		

		ENG_philip_kerr = {
			
			allowed = {
				original_tag = ENG
			}
			
			traits = { silent_workhorse }
		}

		ENG_nevile_henderson = {
			
			allowed = {
				original_tag = ENG
			}
			
			traits = { backroom_backstabber }
		}

		ENG_maxwell_aitken = {
			
			allowed = {
				original_tag = ENG
			}
			
			traits = { war_industrialist }

			ai_will_do = {
				factor = 2
			}
		}

		ENG_leslie_hore_belisha = {
			
			allowed = {
				original_tag = ENG
			}
			
			traits = { armaments_organizer }
		}

		ENG_ernest_bevin = {
			
			allowed = {
				original_tag = ENG
			}
			
			traits = { quartermaster_general }

			ai_will_do = {
				factor = 1
			}
		}


	
	}
		
	# MILITARY
	army_chief = {
		john_vereker = {
			allowed = {
				original_tag = ENG
			}
			
			traits = { army_chief_offensive_2 }
			
			ai_will_do = {
				factor = 2
			}
		}
		
		edmund_ironside = {
			
			allowed = {
				original_tag = ENG
			}
			

			
			traits = { army_chief_defensive_2 }
			
			ai_will_do = {
				factor = 2
			}
		}
		
		alan_brooke = {
			
			allowed = {
				original_tag = ENG
			}
			
			traits = { army_chief_maneuver_3 }
			
			ai_will_do = {
				factor = 1
			}
		}		
	}
	navy_chief = {

		ernle_chatfield = {
			
			allowed = {
				original_tag = ENG
			}
			

			
			traits = { navy_chief_maneuver_2 }
			
			ai_will_do = {
				factor = 1
			}
		}
		
		dudley_pound = {
			
			allowed = {
				original_tag = ENG
			}
			

			
			traits = { navy_chief_decisive_battle_1 }
			# REVISIT Secondary trait for anti-sub efforts?
			
			ai_will_do = {
				factor = 1
			}
		}
		
		andrew_cunningham = {
			
			allowed = {
				original_tag = ENG
			}
			

			
			traits = { navy_chief_naval_aviation_2 }
			
			ai_will_do = {
				factor = 0.5
			}
		}
	}
	air_chief = {

		cyril_newall = {
			
			allowed = {
				original_tag = ENG
			}
			

			
			traits = { air_chief_reform_2 }
			
			ai_will_do = {
				factor = 1
			}
		}
		
		charles_portal = {
			
			allowed = {
				original_tag = ENG
			}
			

			
			traits = { air_chief_night_operations_2 }
			# REVISIT Stratetic bombing as secondary trait?
			
			ai_will_do = {
				factor = 1
			}
		}
		
		edward_ellington = {
			
			allowed = {
				original_tag = ENG
			}
			

			
			traits = { air_chief_safety_2 }
			
			ai_will_do = {
				factor = 1
			}
		}
	}
	
	high_command = {
	
		ENG_jfc_fuller_a = {
			ledger = army
			picture = ENG_jfc_fuller 
			
			allowed = {
				original_tag = ENG
				has_dlc = "Man the Guns"
			}
			
			traits = { army_armored_2 }

			ai_will_do = {
				factor = 1
			}
		}

		archibald_wavell = {
			ledger = army
			allowed = {
				original_tag = ENG
			}
			
			traits = { army_regrouping_2 }
			
			ai_will_do = {
				factor = 1
			}
		}
		
		claude_auchinleck = {
			ledger = army
			allowed = {
				original_tag = ENG
			}
			

			
			traits = { army_logistics_2 }
			
			ai_will_do = {
				factor = 2
			}
		}
		
		kenneth_anderson = {
			ledger = army
			allowed = {
				original_tag = ENG
			}
			

			
			traits = { army_infantry_2 }
			
			ai_will_do = {
				factor = 2
			}
		}
	
		sholto_douglas = {
			ledger = air
			allowed = {
				original_tag = ENG
			}
			

			
			traits = { air_air_superiority_2 }
			
			ai_will_do = {
				factor = 1
			}
		}
		
		trafford_leigh_mallory = {
			ledger = air
			allowed = {
				original_tag = ENG
			}
			

			
			traits = { air_bomber_interception_2 }
			
			ai_will_do = {
				factor = 1
			}
		}
		
		arthur_harris_highcommand = {
			ledger = air		
			
			allowed = {
				original_tag = ENG
			}
			
			traits = { air_strategic_bombing_3 }
		}
		###FUCKING YEET
		frederick_bowhill = {
			ledger = navy
			allowed = {
				original_tag = ENG
			}
			

			
			traits = { air_naval_strike_2 }
			
			ai_will_do = {
				factor = 1
			}
		}	
		
		louis_mountbatten = {
			ledger = army
			allowed = {
				original_tag = ENG
			}
			
			traits = { navy_amphibious_assault_3 }
			
			ai_will_do = {
				factor = 1
			}
		}
		
		henry_harwood = {
			ledger = navy
			allowed = {
				original_tag = ENG
			}
			

			
			traits = { navy_screen_2 }
			
			ai_will_do = {
				factor = 0.7
			}
		}
		
		max_horton = {
			ledger = navy
			allowed = {
				original_tag = ENG
			}
			

			
			traits = { navy_submarine_2 }
			
			ai_will_do = {
				factor = 0.2
			}
		}		

		ENG_david_stirling = {
			ledger = army
			
			allowed = {
				original_tag = ENG
			}
			
			traits = { army_commando_2 }
			
			ai_will_do = {
				factor = 0.2
			}
		}	
	}
	
	
	naval_manufacturer = {
		
		designer = yes
				
		yarrow_shipbuilders = {

		cost = 75

			
			allowed = {
				OR = {
					original_TAG = ENG
					original_TAG = SAF					
				}
			}
						
			research_bonus = {
				naval_equipment = 0.15
			}
			
			traits = { convoy_escort_naval_manufacturer }

		}
		
		harland_wolff = {
			
			cost = 75

			
			allowed = {
				OR = {
					original_TAG = ENG
					original_TAG = SAF					
				}			
			}
			

			
			research_bonus = {
				naval_equipment = 0.15
			}
			
			traits = { pacific_fleet_naval_manufacturer }
		}
		
		cammell_laird = {
			
			cost = 75
			
			allowed = {
				OR = {
					original_TAG = ENG
					original_TAG = CAN
					original_TAG = SAF
					original_TAG = AST
					original_TAG = NZL					
				}
			}
			

			
			research_bonus = {
				naval_equipment = 0.15
			}
			
			traits = { atlantic_fleet_naval_manufacturer }
			
			modifier = {
			}
		}
		
		john_brown_company = {
			
			cost = 75			
			
			allowed = {
				OR = {
					original_TAG = ENG
					original_TAG = SAF
					original_TAG = CAN
					original_TAG = AST
					original_TAG = NZL					
				}
			}
			

			
			research_bonus = {
				naval_equipment = 0.15
			}
			
			traits = { coastal_defence_naval_manufacturer }
		}	
	}
	
	aircraft_manufacturer = {
			
		designer = yes
		
		supermarine = {
			
			cost = 100 
			
			allowed = {
				original_TAG = ENG
			}
			

			
			research_bonus = {
				air_equipment = 0.15
			}
			
			traits = { supermarine_aircraft_manufacturer }
			
			modifier = {
			}
		}
		
		hawker = {
			
			allowed = {
				original_TAG = ENG
			}
			
			cost = 100 
			
			research_bonus = {
				air_equipment = 0.15
			}
			
			traits = { hawker_aircraft_manufacturer } 
			
			modifier = {
			}
		}	
		de_havilland = {
			
			allowed = {
				original_TAG = ENG
			}
			
			cost = 100 
			
			research_bonus = {
				air_equipment = 0.15
			}

			modifier = {
			}
		}
		
		avro = {
			
			allowed = {
				original_TAG = ENG
			}
			
			cost = 100 
			
			research_bonus = {
				air_equipment = 0.15
			}
			
			traits = { avro_aircraft_manufacturer }
			
			modifier = {
			}
		}
		
		fairey_aviation = {
			
			allowed = {
				original_TAG = ENG
			}
			cost = 100 

			
			research_bonus = {
				air_equipment = 0.15
			}
			
			traits = { fairey_aircraft_manufacturer }
			
			modifier = {
			}
		}			
	}
	
	materiel_manufacturer = {
			
		designer = yes
		
		rsaf_enfield = {
			
			allowed = {
				original_TAG = ENG
			}
			

			
			research_bonus = {
				infantry_weapons = 0.15
			}
			
			traits = { infantry_equipment_manufacturer }
			
			modifier = {
			}
		}
		
		vauxhall = {
			
			allowed = {
				original_TAG = ENG
			}
			

			
			research_bonus = {
				motorized_equipment = 0.15
			}
			
			traits = { motorized_equipment_manufacturer }
			
			modifier = {
			}
		}
		
		royal_arsenal = {
			
			allowed = {
				original_TAG = ENG
			}
			

			
			research_bonus = {
				artillery = 0.15
			}
			
			traits = { artillery_manufacturer }
			
			modifier = {
			}
		}
	}
	industrial_concern = {
				
		aioc = {
			
			allowed = {
				original_TAG = ENG
			}
			

			
			research_bonus = {
				industry = 0.15
			}
			
			traits = { industrial_concern }
			
			modifier = {
			}
		}
		
		english_electric = {
			
			allowed = {
				original_TAG = ENG
			}
			

			
			research_bonus = {
				electronics = 0.15
			}
			
			traits = { electronics_concern }
			
			modifier = {
			}
		}
		
	}	

	
	tank_manufacturer = {
		birmingham_rcw = {
			cost = 75
			allowed = {
				OR = { 
					original_TAG = ENG
					original_TAG = CAN
					original_TAG = RAJ 
					original_TAG = SAF 
					original_TAG = NZL 
					original_TAG = AST 
					original_TAG = HOL
				}
			}

			research_bonus = {
				armor = 0.15
			}

			equipment_bonus = {
				medium_tank_equipment = {
					maximum_speed = 0.1
					soft_attack = 0.1
					reliability = 0.05
				}
				medium_tank_destroyer_equipment = {
					maximum_speed = 0.1
					hard_attack = 0.1
					reliability = 0.1
				}
				medium_tank_artillery_equipment = {
					maximum_speed = 0.1
					soft_attack = 0.05
					reliability = 0.1
				}			
				medium_tank_aa_equipment = {
					maximum_speed = 0.1
					air_attack = 0.1
					reliability = 0.1
				}				
			}
		}

		nuffield = {
			cost = 75
			allowed = {
				OR = { 
					original_TAG = ENG
					original_TAG = CAN
					original_TAG = RAJ 
					original_TAG = SAF 
					original_TAG = NZL 
					original_TAG = AST 
					original_TAG = HOL
				}
			}
			research_bonus = {
				armor = 0.15
			}

			equipment_bonus = {
				medium_tank_equipment = {
					hard_attack = 0.05
					maximum_speed = 0.10
					reliability = 0.2
				}
				medium_tank_destroyer_equipment = {
					hard_attack = 0.1
					maximum_speed = 0.15
					reliability = 0.2
				}
				medium_tank_artillery_equipment = {
					soft_attack = 0.05
					maximum_speed = 0.15
					reliability = 0.2
				}
				medium_tank_aa_equipment = {
					air_attack = 0.05
					maximum_speed = 0.15
					reliability = 0.2
				}					
			}
		}

		vauxhall_motors = {
			cost = 75
			allowed = {
				OR = { 
					original_TAG = ENG
					original_TAG = CAN
					original_TAG = RAJ 
					original_TAG = SAF 
					original_TAG = NZL 
					original_TAG = AST 
					original_TAG = HOL
				}
			}
			
			research_bonus = {
				armor = 0.15
			}

			equipment_bonus = {
				heavy_tank_equipment = {
					hard_attack = 0.1
					soft_attack = 0.1
					defense = 0.1
					maximum_speed = -0.10
					reliability = 0.05
				}
				heavy_tank_destroyer_equipment = {
					defense = 0.1
					hard_attack = 0.05
					maximum_speed = -0.10
					reliability = 0.05
				}
				heavy_tank_artillery_equipment = {
					defense = 0.1
					soft_attack = 0.1
					maximum_speed = -0.10
					reliability = -0.05
				}
				heavy_tank_aa_equipment = {
					defense = 0.1
					air_attack = 0.05
					maximum_speed = -0.10
					reliability = 0.05
				}					
				}
			}

		vickers_armstrong_eng = {
			cost = 75
			allowed = {
				OR = { 
					original_TAG = ENG
					original_TAG = CAN
					original_TAG = RAJ 
					original_TAG = SAF 
					original_TAG = NZL 
					original_TAG = AST 
					original_TAG = HOL
				}
			}
			research_bonus = {
				armor = 0.15
			}

			equipment_bonus = {
				heavy_tank_equipment = {
					maximum_speed = -0.05
					reliability = 0.05
				}
				heavy_tank_destroyer_equipment = {
					hard_attack = 0.15
					maximum_speed = -0.10
					reliability = 0.05
				}
				heavy_tank_artillery_equipment = {
					breakthrough = 0.1
					soft_attack = 0.05
					maximum_speed = -0.10
					reliability = 0.05
				}
				heavy_tank_aa_equipment = {
					air_attack = 0.05
					maximum_speed = -0.10
					reliability = 0.05
				}					
				light_tank_equipment = {
					maximum_speed = 0.1
					reliability = 0.1
				}
				light_tank_destroyer_equipment = {
					maximum_speed = 0.1
					reliability = 0.1
					hard_attack = 0.1
					ap_attack = 0.05
				}
				light_tank_artillery_equipment = {
					maximum_speed = 0.1
					reliability = 0.1
					soft_attack = 0.05
				}
				light_tank_aa_equipment = {
					maximum_speed = 0.1
					reliability = 0.1
					air_attack = 0.05
				}					
			}
		}
	}
	
	theorist = {
	
		bernard_montgomery = {
			ledger = army
			allowed = {
				original_tag = ENG
			}
			
			cost = 150
			
			research_bonus = {
				cat_grand_battle_plan = 0.15
			}
			
			traits = { grand_battle_plan_expert }
		}
		
		harold_alexander = {
			ledger = army
			allowed = {
				original_tag = ENG
			}
			
			research_bonus = {
				land_doctrine = 0.1
			}
			
			traits = { military_theorist }
		}

		
		tom_phillips = {
			ledger = army
			allowed = {
				original_tag = ENG
			}
			

			
			research_bonus = {
				naval_doctrine = 0.1
			}
			
			traits = { naval_theorist }
		}
		
		hugh_dowding = {
			ledger = air
			allowed = {
				original_tag = ENG
			}
			

			
			research_bonus = {
				air_doctrine = 0.1
			}
			
			traits = { air_warfare_theorist }
		}
		
		arthur_harris = {
			ledger = air
			allowed = {
				original_tag = ENG
			}
			
			cost = 150
			
			research_bonus = {
				cat_strategic_destruction = 0.15
			}
			
			traits = { victory_through_airpower }
		}
		
		james_chadwick = {
			ledger = army
			allowed = {
				original_tag = ENG
			}
			

			
			research_bonus = {
				nuclear = 0.15
			}
			
			traits = { nuclear_scientist }
		}
		
		frank_whittle = {
			ledger = air
			allowed = {
				original_tag = ENG
			}
			

			
			research_bonus = {
				rocketry = 0.10
			}
			
			traits = { rocket_scientist }
		}
		
		

		# Crap communist ministers, intentionally without loc so they are 'randomized'


	}

}

