focus_tree = {
	id = hungarian_focus

	country = {
		factor = 0

		modifier = {
			add = 10
			tag = HUN
			#always = no
			has_dlc = "Death or Dishonor"
		}
	}

	default = no

	continuous_focus_position = { x = 50 y = 1600 }

	focus = {
		id = HUN_yugoslavia_war
		icon = GFX_goal_generic_occupy_states_ongoing_war
		available = {
			GER = { has_completed_focus = GER_danzig_or_war }
			HUN = { has_war_with = ENG }
		}
		bypass = {
			NOT = { country_exists = YUG }
		}		
		will_lead_to_war_with = YUG
		x = 7
		y = 0
		cost = 5
		ai_will_do = {
			factor = 10
		}
		completion_reward = {
			create_wargoal = {
				type = take_state_focus
				target = YUG
				generator = { 6 }
			}
		}
	}

	focus = {
		id = HUN_greece_war
		icon = GFX_goal_generic_occupy_states_ongoing_war
		available = {
			GER = { has_completed_focus = GER_danzig_or_war }
			HUN = { has_war_with = ENG }
		}
		bypass = {
			NOT = { country_exists = GRE }
		}		
		will_lead_to_war_with = GRE
		x = 9
		y = 0
		cost = 5
		ai_will_do = {
			factor = 10
		}
		completion_reward = {
			create_wargoal = {
				type = take_state_focus
				target = GRE
				generator = { 47 } # Athens
			}
		}
	}
	

	############################
	## ECONOMIC INTERVENTION ###
	############################

	focus = {
		id = HUN_economic_intervention
		icon = GFX_goal_generic_demand_territory

		x = 0
		y = 0

		cost = 10

		ai_will_do = {
			factor = 100
		}

		cancel_if_invalid = no
		continue_if_invalid = yes
		available_if_capitulated = no

		completion_reward = {
			add_ideas = HUN_interventionism
		}
	}



	############################
	####### FASCIST PATH #######
	############################

	focus = {
		id = HUN_strengthen_fascists
		icon = GFX_goal_support_fascism
		prerequisite = { focus = HUN_economic_intervention }
		x = 0
		y = 1
		relative_position_id = HUN_economic_intervention

		cost = 10

		ai_will_do = {
			factor = 90
		}

		cancel_if_invalid = no
		continue_if_invalid = yes
		available_if_capitulated = yes

		completion_reward = {
			add_ideas = HUN_strengthen_fascists
			add_popularity = { ideology = fascism popularity = 0.1 }
			set_party_name = { ideology = fascism long_name = HUN_arrow_cross_party_long name = HUN_arrow_cross_party }
			hidden_effect = {
				create_country_leader = {
					name = "Miklós Horthy"
					desc = "POLITICS_MIKLOS_HORTHY_DESC"
					picture = "Portrait_Hungary_Miklos_Horthy.dds"
					expire = "1965.1.1"
					ideology = fascism_ideology
					traits = {
						anti_communist
					}
					id = 503 #Horthy fascist
				}
			}
		}
	}

	focus = {
		id = HUN_renounce_the_treaty_of_trianon
		icon = GFX_focus_renounce_the_treaty_of_trianon
		prerequisite = { focus = HUN_strengthen_fascists }
		x = 0
		y = 1
		relative_position_id = HUN_strengthen_fascists

		cost = 10

		ai_will_do = {
			factor = 60
		}

		available = {
			OR = {
				has_government = fascism
				fascism > 0.4
			}
			is_subject = no
		}

		bypass = {
			NOT = {
				has_idea = HUN_treaty_of_triannon
				has_idea = HUN_treaty_of_triannon_2
				has_idea = HUN_treaty_of_triannon_3
			}
		}

		cancel_if_invalid = no
		continue_if_invalid = yes
		available_if_capitulated = yes

		completion_reward = {
			HUN = { country_event = { id = DOD_hungary.42 } }

			#make Horthy or King dude leader. depending on focus picked earlier

			if = {
				limit = {
					has_completed_focus = HUN_strengthen_fascists
				}
				if = {
					#Retire Horthy if neutral leader
					limit = {
						has_country_leader = { id = 500 }
					}
					hidden_effect = {
						retire_country_leader = yes
					}
				}
			}

			if = {
				limit = {
					NOT = { has_government = fascism }
				}
				set_politics = {
					ruling_party = fascism
					elections_allowed = no
				}
			}
		}
	}


	focus = {
		id = HUN_reaffirm_territorial_claims
		icon = GFX_goal_generic_forceful_treaty
		prerequisite = { focus = HUN_renounce_the_treaty_of_trianon }
		x = 2
		y = 1
		relative_position_id = HUN_renounce_the_treaty_of_trianon

		cost = 10

		ai_will_do = {
			factor = 40
			modifier = {
				factor = 0.25
				OR = {
					YUG = {
						is_in_faction = yes
					}
					ROM = {
						is_in_faction = yes 
					}					
				}
			}
			modifier = {
				factor = 4
				is_in_faction = yes
				NOT = {
					OR = {
						is_in_faction_with = GER
						is_in_faction_with = ROM
						is_in_faction_with = YUG
					}
				}
			}
		}

		available = {
			date > 1940.7.1
		}

		bypass = {

		}

		cancel_if_invalid = no
		continue_if_invalid = yes
		available_if_capitulated = no



		completion_reward = {
			transfer_state = 76
			add_state_core = 76
			add_state_core = 73
			add_state_core = 664
			add_state_core = 45
			BUL = {
				transfer_state = 77			
			}
		}
	}

	focus = {
		id = HUN_trade_deal_with_germany
		icon = GFX_goal_generic_trade
		prerequisite = { focus = HUN_renounce_the_treaty_of_trianon }
		x = 0
		y = 1
		relative_position_id = HUN_renounce_the_treaty_of_trianon

		cost = 8

		ai_will_do = {
			factor = 80
		}

		available = {
			NOT = { has_war_with = GER }
		}

		cancel_if_invalid = no
		continue_if_invalid = yes
		available_if_capitulated = no

		completion_reward = {
			add_opinion_modifier = { target = GER modifier = HUN_trade_deal_with_germany }
			reverse_add_opinion_modifier = { target = GER modifier = HUN_trade_deal_with_germany }
			swap_ideas = {
				add_idea = HUN_interventionism_2
				remove_idea = HUN_interventionism
			}
		}
	}

	focus = {
		id = HUN_joint_aluminum_mining_company
		icon = GFX_goal_generic_construction2
		prerequisite = { focus = HUN_trade_deal_with_germany }
		x = 0
		y = 2
		relative_position_id = HUN_renounce_the_treaty_of_trianon

		cost = 6

		ai_will_do = {
			factor = 80
		}

		available = {
			ROOT = { has_full_control_of_state = 43 }
		}

		cancel_if_invalid = no
		continue_if_invalid = yes
		available_if_capitulated = no

		completion_reward = {
			43 = {
				add_resource = {
					type = aluminium
					amount = 16
				}
			}
			GER = {
				64 = {
					add_resource = {
						type = aluminium
						amount = 6
					}
				}
			}
		}
	}








	############################
	#### COMMUNIST BRANCH ######
	############################

	############################
	##### INDUSTRY BRANCH ######
	############################

	focus = {
		id = HUN_industrial_revitalization
		icon = GFX_goal_generic_construction
		x = 4
		y = 0

		cost = 10

		ai_will_do = {
			factor = 90
		}

		available = {

		}

		bypass = {

		}

		cancel_if_invalid = no
		continue_if_invalid = yes
		available_if_capitulated = no

		complete_tooltip = {

		}

		completion_reward = {
			add_tech_bonus = {
				name = HUN_industrial_revitalization
				bonus = 1.00
				uses = 1
				category = industry
			}
		}
	}

	focus = {
		id = HUN_reintegrate_the_railroads
		icon = GFX_goal_generic_construct_infrastructure
		prerequisite = { focus = HUN_industrial_revitalization }
		x = 0
		y = 1
		relative_position_id = HUN_industrial_revitalization

		cost = 10

		ai_will_do = {
			factor = 70
		}

		available = {

		}

		bypass = {

		}

		cancel_if_invalid = no
		continue_if_invalid = yes
		available_if_capitulated = no

		completion_reward = {
			random_owned_controlled_state = {
				prioritize = { 155 }
				limit = {
					free_building_slots = {
						building = infrastructure
						size > 0
					}
				}
				add_building_construction = {
					type = infrastructure
					level = 1
					instant_build = yes
				}
				set_state_flag = HUN_reintegrate_the_railroads_Inf
			}
			random_owned_controlled_state = {
				prioritize = { 43 }
				limit = {
					free_building_slots = {
						building = infrastructure
						size > 0
					}
				}
				add_building_construction = {
					type = infrastructure
					level = 2
					instant_build = yes
				}
				set_state_flag = HUN_reintegrate_the_railroads_Inf_2
			}
			random_owned_controlled_state = {
				prioritize = { 664 }
				limit = {
					free_building_slots = {
						building = infrastructure
						size > 0
					}
				}
				add_building_construction = {
					type = infrastructure
					level = 1
					instant_build = yes
				}
				set_state_flag = HUN_reintegrate_the_railroads_Inf_3
			}
			if = {
				limit = { country_exists = AUS }
				reverse_add_opinion_modifier = { target = AUS modifier = HUN_reintegrate_the_railroads }
			}
			if = {
				limit = { country_exists = CZE }
				reverse_add_opinion_modifier = { target = CZE modifier = HUN_reintegrate_the_railroads }
			}
		}
	}

	focus = {
		id = HUN_support_domestic_industry
		icon = GFX_goal_generic_construct_civ_factory
		prerequisite = { focus = HUN_reintegrate_the_railroads }
		x = -1
		y = 2
		relative_position_id = HUN_industrial_revitalization

		cost = 10

		ai_will_do = {
			factor = 60
		}

		available = {

		}

		bypass = {

		}

		cancel_if_invalid = no
		continue_if_invalid = yes
		available_if_capitulated = no

		complete_tooltip = {

		}

		complete_tooltip = {
			random_state = {
				limit = {
					has_state_flag = HUN_support_domestic_industry_IC
				}
				add_extra_state_shared_building_slots = 2
				add_building_construction = {
					type = industrial_complex
					level = 1
					instant_build = yes
				}
			}
		}

		completion_reward = {
			random_owned_controlled_state = {
				limit = {
					free_building_slots = {
						building = industrial_complex
						size > 1
						include_locked = yes
					}
				}
				add_extra_state_shared_building_slots = 2
				add_building_construction = {
					type = industrial_complex
					level = 1
					instant_build = yes
				}
				set_state_flag = HUN_support_domestic_industry_IC
			}
		}
	}

	focus = {
		id = HUN_support_urbanization
		icon = GFX_goal_generic_construction
		prerequisite = { focus = HUN_reintegrate_the_railroads }
		x = 1
		y = 2
		relative_position_id = HUN_industrial_revitalization
		cost = 6

		ai_will_do = {
			factor = 90
		}

		available = {

		}

		bypass = {

		}

		cancel_if_invalid = no
		continue_if_invalid = yes
		available_if_capitulated = no

		complete_tooltip = {

		}

		completion_reward = {
			if = {
				limit = {
					43 = {
						free_building_slots = {
							building = industrial_complex
							size > 1
							include_locked = yes
						}
					}
				}
				43 = {
					add_extra_state_shared_building_slots = 3
				}
			}
		}
	}

	focus = {
		id = HUN_institute_for_industrial_techniques
		icon = GFX_focus_research
		prerequisite = { focus = HUN_support_urbanization }
		prerequisite = { focus = HUN_support_domestic_industry }
		x = 0
		y = 3
		relative_position_id = HUN_industrial_revitalization
		cost = 10

		ai_will_do = {
			factor = 90
		}

		available = {

		}

		bypass = {

		}

		cancel_if_invalid = no
		continue_if_invalid = yes
		available_if_capitulated = no

		complete_tooltip = {

		}

		completion_reward = {
			add_research_slot = 1
		}
	}


	focus = {
		id = HUN_announce_the_gyor_program
		icon = GFX_Noras_Gyor
		prerequisite = { focus = HUN_institute_for_industrial_techniques }
		x = 0
		y = 4
		relative_position_id = HUN_industrial_revitalization

		cost = 10

		ai_will_do = {
			factor = 90
		}

		available = {

		}

		bypass = {

		}

		cancel_if_invalid = no
		continue_if_invalid = yes
		available_if_capitulated = no

		complete_tooltip = {

		}

		completion_reward = {
			add_tech_bonus = {
				name = HUN_announce_the_gyor_program
				bonus = 1.00
				uses = 2
				category = industry
			}
		}
	}

	############################
	#### CIVILIAN INDUSTRY #####
	############################

	focus = {
		id = HUN_civilian_industry
		icon = GFX_goal_generic_construct_civ_factory
		prerequisite = { focus = HUN_announce_the_gyor_program }
		x = -1
		y = 1
		relative_position_id = HUN_announce_the_gyor_program

		cost = 10

		ai_will_do = {
			factor = 40
		}

		available = {

		}

		bypass = {

		}

		cancel_if_invalid = no
		continue_if_invalid = yes
		available_if_capitulated = no

		complete_tooltip = {
			random_state = {
				limit = {
					has_state_flag = HUN_civilian_industry_IC
				}
				add_extra_state_shared_building_slots = 2
				add_building_construction = {
					type = industrial_complex
					level = 2
					instant_build = yes
				}
			}
		}

		completion_reward = {
			random_owned_controlled_state = {
				limit = {
					free_building_slots = {
						building = industrial_complex
						size > 1
						include_locked = yes
					}
				}
				add_extra_state_shared_building_slots = 2
				add_building_construction = {
					type = industrial_complex
					level = 2
					instant_build = yes
				}
				set_state_flag = HUN_civilian_industry_IC
			}
		}
	}



	focus = {
		id = HUN_invite_foreign_investors
		icon = GFX_goal_generic_intelligence_exchange
		prerequisite = { focus = HUN_civilian_industry }
		x = -2
		y = 1
		relative_position_id = HUN_civilian_industry

		cost = 10

		ai_will_do = {
			factor = 70
		}

		available = {

		}

		bypass = {

		}

		cancel_if_invalid = no
		continue_if_invalid = yes
		available_if_capitulated = no

		complete_tooltip = {

		}

		completion_reward = {
			add_ideas = HUN_invite_foreign_investors
			random_owned_controlled_state = {
				limit = {
					free_building_slots = {
						building = industrial_complex
						size > 1
						include_locked = yes
					}
				}
				add_extra_state_shared_building_slots = 2
				add_building_construction = {
					type = industrial_complex
					level = 2
					instant_build = yes
				}
			}
		}
	}

	focus = {
		id = HUN_expand_the_manfred_weiss_steel_works
		icon = GFX_goal_generic_construct_civilian
		prerequisite = { focus = HUN_invite_foreign_investors }
		x = -3
		y = 2
		relative_position_id = HUN_civilian_industry

		cost = 8

		ai_will_do = {
			factor = 70
		}

		available = {

		}

		bypass = {

		}

		cancel_if_invalid = no
		continue_if_invalid = yes
		available_if_capitulated = no

		complete_tooltip = {
			random_state = {
				limit = {
					has_state_flag = HUN_expand_the_manfred_weiss_steel_works_IC
				}
				add_extra_state_shared_building_slots = 2
				add_building_construction = {
					type = industrial_complex
					level = 3
					instant_build = yes
				}
				add_resource = {
					type = steel
					amount = 20
				}
			}
		}

		completion_reward = {
			random_owned_controlled_state = {
				prioritize = { 43 }
				limit = {
					ROOT = { has_full_control_of_state = PREV }
					free_building_slots = {
						building = industrial_complex
						size > 1
						include_locked = yes
					}
				}
				add_extra_state_shared_building_slots = 1
				add_building_construction = {
					type = industrial_complex
					level = 1
					instant_build = yes
				}
				set_state_flag = HUN_expand_the_manfred_weiss_steel_works_IC
				add_resource = {
					type = steel
					amount = 20
				}
			}
		}
	}

	focus = {
		id = HUN_expand_the_steel_industry
		icon = GFX_goal_generic_construct_civilian
		prerequisite = { focus = HUN_invite_foreign_investors }
		x = -1
		y = 2
		relative_position_id = HUN_civilian_industry

		cost = 8

		ai_will_do = {
			factor = 70
		}

		available = {
			ROOT = { has_full_control_of_state = 43 }
		}

		bypass = {

		}

		cancel_if_invalid = no
		continue_if_invalid = yes
		available_if_capitulated = no

		complete_tooltip = {

		}

		completion_reward = {
			43 = {
				add_resource = {
					type = steel
					amount = 36
				}
			}
		}
	}

	############################
	###### ARMS INDUSTRY #######
	############################

	focus = {
		id = HUN_domestic_arms_industry
		icon = GFX_goal_generic_construct_mil_factory
		prerequisite = { focus = HUN_announce_the_gyor_program }
		x = 1
		y = 1
		relative_position_id = HUN_announce_the_gyor_program

		cost = 10

		ai_will_do = {
			factor = 80
		}

		available = {

		}

		bypass = {

		}

		cancel_if_invalid = no
		continue_if_invalid = yes
		available_if_capitulated = no

		complete_tooltip = {
			random_state = {
				limit = {
					has_state_flag = HUN_domestic_arms_industry_AF1
				}
				add_extra_state_shared_building_slots = 2
				add_building_construction = {
					type = arms_factory
					level = 1
					instant_build = yes
				}
			}
			random_state = {
				limit = {
					has_state_flag = HUN_domestic_arms_industry_AF2
				}
				add_extra_state_shared_building_slots = 1
				add_building_construction = {
					type = arms_factory
					level = 1
					instant_build = yes
				}
			}
		}

		completion_reward = {
			random_owned_controlled_state = {
				limit = {
					free_building_slots = {
						building = arms_factory
						size > 1
						include_locked = yes
					}
				}
				add_extra_state_shared_building_slots = 2
				add_building_construction = {
					type = arms_factory
					level = 2
					instant_build = yes
				}
				set_state_flag = HUN_domestic_arms_industry_AF1
			}
			random_owned_controlled_state = {
				limit = {
					free_building_slots = {
						building = arms_factory
						size > 0
						include_locked = yes
					}
				}
				add_extra_state_shared_building_slots = 1
				add_building_construction = {
					type = arms_factory
					level = 1
					instant_build = yes
				}
				set_state_flag = HUN_domestic_arms_industry_AF2
			}
		}
	}





	focus = {
		id = HUN_boost_hungarian_aviation_industry
		icon = GFX_goal_generic_construct_mil_factory
		prerequisite = { focus = HUN_domestic_arms_industry }
		x = 1
		y = 1
		relative_position_id = HUN_domestic_arms_industry

		cost = 10

		ai_will_do = {
			factor = 60
		}

		available = {

		}

		bypass = {

		}

		cancel_if_invalid = no
		continue_if_invalid = yes
		available_if_capitulated = no

		complete_tooltip = {
			random_state = {
				limit = {
					has_state_flag = HUN_boost_hungarian_aviation_industry_AF1
				}
				add_extra_state_shared_building_slots = 1
				add_building_construction = {
					type = arms_factory
					level = 2
					instant_build = yes
				}
			}
		}

		completion_reward = {
			random_owned_controlled_state = {
				limit = {
					free_building_slots = {
						building = arms_factory
						size > 1
						include_locked = yes
					}
				}
				add_extra_state_shared_building_slots = 2
				add_building_construction = {
					type = arms_factory
					level = 2
					instant_build = yes
				}
				set_state_flag = HUN_boost_hungarian_aviation_industry_AF1
			}
		}
	}


	############################
	#### Synthetic INDUSTRY #####
	############################

	focus = {
		id = HUN_autarky
		icon = GFX_goal_generic_construct_civ_factory
		prerequisite = { focus = HUN_civilian_industry focus = HUN_domestic_arms_industry }
		x = 0
		y = 2
		relative_position_id = HUN_announce_the_gyor_program

		cost = 10

		ai_will_do = {
			factor = 40
		}

		available = {

		}

		bypass = {

		}

		cancel_if_invalid = no
		continue_if_invalid = yes
		available_if_capitulated = no

		complete_tooltip = {

		}

		completion_reward = {
			add_tech_bonus = {
				name = HUN_synthetic_industry
				bonus = 2.00
				uses = 1
				category = synth_resources
			}
		}
	}

	focus = {
		id = HUN_synthetic_industry
		icon = GFX_goal_generic_oil_refinery
		prerequisite = { focus = HUN_autarky }
		x = 0
		y = 3
		relative_position_id = HUN_announce_the_gyor_program

		cost = 10

		ai_will_do = {
			factor = 40
		}

		available = {
			has_tech = synth_oil_experiments
		}

		bypass = {

		}

		cancel_if_invalid = no
		continue_if_invalid = yes
		available_if_capitulated = no

		complete_tooltip = {

			random_state = {
				limit = {
					has_state_flag = HUN_synthetic_industry_AF1
				}
				add_extra_state_shared_building_slots = 1
				add_building_construction = {
					type = synthetic_refinery
					level = 1
					instant_build = yes
				}
			}
		}

		completion_reward = {
			if = {
				limit = { NOT = { has_tech = synth_oil_experiments } }
				custom_effect_tooltip = HUN_synthetic_oil_tt
			}
			random_owned_controlled_state = {
				limit = {
					free_building_slots = {
						building = synthetic_refinery
						size > 0
						include_locked = yes
					}
				}
				add_extra_state_shared_building_slots = 1
				add_building_construction = {
					type = synthetic_refinery
					level = 1
					instant_build = yes
				}
				set_state_flag = HUN_synthetic_industry_AF1
			}
		}
	}

	############################
	##### MILITARY STUFFS ######
	############################

	focus = {
		id = HUN_secret_rearmament
		icon = GFX_focus_secret_rearmament
		x = 13
		y = 0

		cost = 5

		ai_will_do = {
			factor = 80
		}

		available = {

		}

		cancel_if_invalid = no
		continue_if_invalid = yes
		available_if_capitulated = no

		complete_tooltip = {

		}

		completion_reward = {
			add_ideas = HUN_secret_rearmament
		}
	}

	focus = {
		id = HUN_war_games
		icon = GFX_goal_poland_goal
		prerequisite = { focus = HUN_secret_rearmament }
		x = -1
		y = 1
		relative_position_id = HUN_secret_rearmament

		cost = 5

		ai_will_do = {
			factor = 70
		}

		available = {

		}

		bypass = {

		}

		cancel_if_invalid = no
		continue_if_invalid = yes
		available_if_capitulated = no

		complete_tooltip = {

		}

		completion_reward = {
			army_experience = 25
		}
	}

	focus = {
		id = HUN_theoretical_air_efforts
		icon = GFX_goal_generic_air_doctrine
		prerequisite = { focus = HUN_secret_rearmament }
		x = 1
		y = 1
		relative_position_id = HUN_secret_rearmament

		cost = 10

		ai_will_do = {
			factor = 70
		}

		available = {

		}

		bypass = {

		}

		cancel_if_invalid = no
		continue_if_invalid = yes
		available_if_capitulated = no

		complete_tooltip = {

		}

		completion_reward = {
			add_tech_bonus = {
				name = HUN_theoretical_air_efforts
				bonus = 1.00
				uses = 1
				category = air_doctrine
			}
		}
	}

	focus = {
		id = HUN_bled_agreement
		icon = GFX_goal_generic_military_deal
		prerequisite = { focus = HUN_war_games focus = HUN_theoretical_air_efforts }
		x = 0
		y = 2
		relative_position_id = HUN_secret_rearmament

		cost = 10

		ai_will_do = {
			factor = 60
		}

		available = {

		}

		bypass = {
			OR = {
				AND = {
					NOT = { has_idea = HUN_treaty_of_triannon }
					NOT = { has_idea = HUN_treaty_of_triannon_2 }
				}
				has_idea = HUN_treaty_of_triannon_3
				AND = {
					ROM = {
						OR = {
							exists = no
							is_puppet = yes
						}
					}
					FRA = {
						OR = {
							exists = no
							is_puppet = yes
							NOT = { has_completed_focus = FRA_little_entente }
						}
					}
				}
			}
		}
		cancel_if_invalid = no
		continue_if_invalid = yes
		available_if_capitulated = no

		complete_tooltip = {

		}

		completion_reward = {
			add_political_power = 150
		if = {
			limit = { has_idea = HUN_treaty_of_triannon }
			swap_ideas = {
				remove_idea = HUN_treaty_of_triannon
				add_idea = HUN_treaty_of_triannon_3
			}
		}
		if = {
			limit = { has_idea = HUN_treaty_of_triannon_2 }
			swap_ideas = {
				remove_idea = HUN_treaty_of_triannon_2
				add_idea = HUN_treaty_of_triannon_3
			}
		}

		}
	}

	############################
	######## AIR STUFFS ########
	############################

	focus = {
		id = HUN_establish_the_air_force
		icon = GFX_goal_generic_build_airforce
		prerequisite = { focus = HUN_bled_agreement }
		x = -3
		y = 3
		relative_position_id = HUN_secret_rearmament

		cost = 10

		ai_will_do = {
			factor = 50
		}

		available = {

		}

		bypass = {

		}

		cancel_if_invalid = no
		continue_if_invalid = yes
		available_if_capitulated = yes

		complete_tooltip = {

		}

		completion_reward = {
			air_experience = 25
			add_tech_bonus = {
				name = HUN_establish_the_air_force
				bonus = 1.00
				uses = 1
				category = air_doctrine
			}
		}
	}

	focus = {
		id = HUN_indigenous_designs
		icon = GFX_goal_generic_air_production
		prerequisite = { focus = HUN_establish_the_air_force }

		mutually_exclusive = { focus = HUN_joint_air_development }
		x = -1
		y = 1
		relative_position_id = HUN_establish_the_air_force

		cost = 10

		ai_will_do = {
			factor = 30
		}

		available = {

		}

		bypass = {

		}

		cancel_if_invalid = no
		continue_if_invalid = yes
		available_if_capitulated = no

		complete_tooltip = {

		}

		completion_reward = {
			add_ideas = HUN_indigenous_designs
		}
	}

	focus = {
		id = HUN_heavy_fighter_effort
		icon = GFX_goal_generic_air_fighter
		prerequisite = { focus = HUN_indigenous_designs }
		mutually_exclusive = { focus = HUN_light_fighter_effort }
		x = -1
		y = 1
		relative_position_id = HUN_indigenous_designs

		cost = 10

		ai_will_do = {
			factor = 40
		}

		available = {

		}

		bypass = {

		}

		cancel_if_invalid = no
		continue_if_invalid = yes
		available_if_capitulated = no

		complete_tooltip = {

		}

		completion_reward = {
			add_tech_bonus = {
				name = HUN_heavy_fighter_effort
				bonus = 1.00
				uses = 1
				technology = heavy_fighter1
				technology = heavy_fighter2

			}
		}
	}

	focus = {
		id = HUN_light_fighter_effort
		icon = GFX_goal_generic_air_fighter2
		prerequisite = { focus = HUN_indigenous_designs }
		mutually_exclusive = { focus = HUN_heavy_fighter_effort }
		x = 1
		y = 1
		relative_position_id = HUN_indigenous_designs

		cost = 10

		ai_will_do = {
			factor = 40
		}

		available = {

		}

		bypass = {

		}

		cancel_if_invalid = no
		continue_if_invalid = yes
		available_if_capitulated = no

		complete_tooltip = {

		}

		completion_reward = {
			add_tech_bonus = {
				name = HUN_light_fighter_effort
				bonus = 1.00
				uses = 1
				technology = early_fighter
				technology = fighter1
				technology = fighter2

			}
		}
	}

	focus = {
		id = HUN_cas_focus
		icon = GFX_goal_generic_CAS
		prerequisite = { focus = HUN_light_fighter_effort focus = HUN_heavy_fighter_effort }
		mutually_exclusive = { focus = HUN_tac_focus }
		x = 1
		y = 2
		relative_position_id = HUN_indigenous_designs

		cost = 10

		ai_will_do = {
			factor = 50
		}

		available = {

		}

		bypass = {

		}

		cancel_if_invalid = no
		continue_if_invalid = yes
		available_if_capitulated = no

		complete_tooltip = {

		}

		completion_reward = {
			add_tech_bonus = {
				name = HUN_cas_focus
				bonus = 1.00
				uses = 1
				technology = CAS1
				technology = CAS2
			}
		}
	}

	focus = {
		id = HUN_tac_focus
		icon = GFX_goal_generic_air_bomber
		prerequisite = { focus = HUN_heavy_fighter_effort focus = HUN_light_fighter_effort }
		mutually_exclusive = { focus = HUN_cas_focus }
		x = -1
		y = 2
		relative_position_id = HUN_indigenous_designs

		cost = 10

		ai_will_do = {
			factor = 50
		}

		available = {

		}

		bypass = {

		}

		cancel_if_invalid = no
		continue_if_invalid = yes
		available_if_capitulated = no

		complete_tooltip = {

		}

		completion_reward = {
			add_tech_bonus = {
				name = HUN_tac_focus
				bonus = 1.00
				uses = 1
				technology = tactical_bomber1
				technology = tactical_bomber2
			}
		}
	}



	focus = {
		id = HUN_joint_air_development
		icon = GFX_goal_generic_air_production
		prerequisite = { focus = HUN_establish_the_air_force }
		mutually_exclusive = { focus = HUN_indigenous_designs }
		x = 2
		y = 1
		relative_position_id = HUN_establish_the_air_force

		cost = 4

		ai_will_do = {
			factor = 30
		}

		available = {
			is_in_faction = yes
		}

		bypass = {

		}

		cancel_if_invalid = no
		continue_if_invalid = yes
		available_if_capitulated = no

		complete_tooltip = {

		}

		completion_reward = {
			add_tech_bonus = {
				name = land_doc_bonus
				bonus = 1.00
				uses = 3
				category = air_doctrine
			}
		}
	}

	############################
	####### ARMY STUFFS ########
	############################

	focus = {
		id = HUN_army_maneuvers
		icon = GFX_goal_generic_army_doctrines
		prerequisite = { focus = HUN_bled_agreement }
		x = 3
		y = 1
		relative_position_id = HUN_bled_agreement

		cost = 10

		ai_will_do = {
			factor = 60
		}

		available = {

		}

		bypass = {

		}

		cancel_if_invalid = no
		continue_if_invalid = yes
		available_if_capitulated = yes

		complete_tooltip = {

		}

		completion_reward = {
			army_experience = 10
			add_tech_bonus = {
				name = HUN_army_maneuvers
				bonus = 1.00
				uses = 1
				category = land_doctrine
			}
		}
	}

	############################
	###### MOBILE BRANCH #######
	############################

	focus = {
		id = HUN_mobile_focus
		icon = GFX_goal_generic_cavalry
		prerequisite = { focus = HUN_army_maneuvers }
		x = -2
		y = 1
		relative_position_id = HUN_army_maneuvers

		cost = 8

		ai_will_do = {
			factor = 40
		}

		available = {

		}

		bypass = {

		}

		cancel_if_invalid = no
		continue_if_invalid = yes
		available_if_capitulated = yes

		complete_tooltip = {

		}

		completion_reward = {
			add_tech_bonus = {
				name = HUN_mobile_focus
				bonus = 1.00
				uses = 1
				category = land_doctrine
			}
		}
	}

	focus = {
		id = HUN_the_botond
		icon = GFX_goal_generic_army_motorized
		prerequisite = { focus = HUN_mobile_focus }
		x = -2
		y = 1
		relative_position_id = HUN_mobile_focus

		cost = 8

		ai_will_do = {
			factor = 60
		}

		available = {

		}

		bypass = {

		}

		cancel_if_invalid = no
		continue_if_invalid = yes
		available_if_capitulated = no

		complete_tooltip = {

		}

		completion_reward = {
			add_tech_bonus = {
				name = HUN_the_botond
				bonus = 1.00
				uses = 1
				category = cat_mechanized_1				
				category = cat_mechanized_2
			}
		}
	}

	focus = {
		id = HUN_motorized_logistics
		icon = GFX_goal_generic_army_motorized
		prerequisite = { focus = HUN_the_botond }
		x = 0
		y = 3
		relative_position_id = HUN_mobile_focus

		cost = 8

		ai_will_do = {
			factor = 30
		}

		available = {

		}

		bypass = {

		}

		cancel_if_invalid = no
		continue_if_invalid = yes
		available_if_capitulated = no

		complete_tooltip = {

		}

		completion_reward = {
			add_tech_bonus = {
				name = HUN_motorized_support_bonus
				bonus = 1.00
				uses = 2
				category = hospital_tech
				category = logistics_tech
			}
		}
	}

	focus = {
		id = HUN_develop_tanks
		icon = GFX_goal_generic_army_tanks
		prerequisite = { focus = HUN_mobile_focus focus = HUN_home_defense }
		x = 0
		y = 1
		relative_position_id = HUN_mobile_focus

		cost = 10

		ai_will_do = {
			factor = 40
		}

		available = {

		}

		bypass = {

		}

		cancel_if_invalid = no
		continue_if_invalid = yes
		available_if_capitulated = no

		complete_tooltip = {

		}

		completion_reward = {
			add_tech_bonus = {
				name = HUN_develop_tanks
				bonus = 2.0
				uses = 2
				technology = advanced_medium_tank
				technology = advanced_heavy_tank
				technology = improved_medium_tank
				technology = improved_heavy_tank
				technology = advanced_light_tank
			}
		}
	}

	focus = {
		id = HUN_assault_gun_focus
		icon = GFX_goal_generic_army_artillery2
		prerequisite = { focus = HUN_mobile_focus focus = HUN_home_defense }
		x = 2
		y = 1
		relative_position_id = HUN_mobile_focus

		cost = 10

		ai_will_do = {
			factor = 60
		}

		available = {

		}

		bypass = {

		}

		cancel_if_invalid = no
		continue_if_invalid = yes
		available_if_capitulated = no

		complete_tooltip = {

		}

		completion_reward = {
			add_ideas = HUN_assault_gun_focus
		}
	}


	focus = {
		id = HUN_armored_warfare
		icon = GFX_goal_generic_army_artillery
		prerequisite = { focus = HUN_the_botond }
		x = 0
		y = 1
		relative_position_id = HUN_the_botond

		cost = 10

		ai_will_do = {
			factor = 60
		}

		available = {

		}

		bypass = {

		}

		cancel_if_invalid = no
		continue_if_invalid = yes
		available_if_capitulated = no

		complete_tooltip = {

		}


		completion_reward = {
			add_tech_bonus = {
				name = HUN_armored_warfare
				bonus = 2.00
				uses = 2
				technology = advanced_medium_tank
				technology = advanced_heavy_tank
				technology = improved_medium_tank
				technology = improved_heavy_tank
				technology = advanced_light_tank
			}
		}
	}

	focus = {
		id = HUN_mobile_corps_doctrine
		icon = GFX_goal_generic_army_doctrines
		prerequisite = { focus = HUN_armored_warfare }
		x = 0
		y = 2
		relative_position_id = HUN_the_botond

		cost = 10

		ai_will_do = {
			factor = 60
		}

		available = {

		}

		bypass = {

		}

		cancel_if_invalid = no
		continue_if_invalid = yes
		available_if_capitulated = yes

		complete_tooltip = {

		}

		completion_reward = {
			add_tech_bonus = {
				name = HUN_mobile_corps_doctrine
				bonus = 1.00
				uses = 1
				category = land_doctrine
			}
		}
	}

	############################
	##### HOME DEF BRANCH ######
	############################

	focus = {
		id = HUN_home_defense
		icon = GFX_goal_generic_fortify_city
		prerequisite = { focus = HUN_army_maneuvers }
		x = 2
		y = 1
		relative_position_id = HUN_army_maneuvers

		cost = 8

		ai_will_do = {
			factor = 80
		}

		cancel_if_invalid = no
		continue_if_invalid = yes
		available_if_capitulated = yes

		complete_tooltip = {

		}

		completion_reward = {
			add_tech_bonus = {
				name = HUN_home_defense
				bonus = 1.00
				uses = 1
				category = land_doctrine
			}
		}
	}

	focus = {
		id = HUN_danuvia_submachine_guns
		icon = GFX_goal_generic_small_arms
		prerequisite = { focus = HUN_mobile_focus focus = HUN_home_defense }
		x = 0
		y = 1
		relative_position_id = HUN_home_defense

		cost = 10

		ai_will_do = {
			factor = 60
		}

		available = {

		}

		bypass = {

		}

		cancel_if_invalid = no
		continue_if_invalid = yes
		available_if_capitulated = no

		complete_tooltip = {

		}

		completion_reward = {
			add_tech_bonus = {
				name = HUN_danuvia_submachine_gunssub
				bonus = 1.00
				uses = 1
				category = infantry_weapons
			}
		}
	}

	focus = {
		id = HUN_artillery_effort
		icon = GFX_goal_generic_army_artillery
		prerequisite = { focus = HUN_danuvia_submachine_guns }
		x = 0
		y = 2
		relative_position_id = HUN_home_defense

		cost = 8

		ai_will_do = {
			factor = 50
		}

		available = {

		}

		bypass = {

		}

		cancel_if_invalid = no
		continue_if_invalid = yes
		available_if_capitulated = no

		complete_tooltip = {

		}

		completion_reward = {
			add_tech_bonus = {
				name = HUN_artillery_effort
				bonus = 1.00
				uses = 2
				category = artillery
			}
		}
	}

	focus = {
		id = HUN_light_infantry_divisions_doctrine
		icon = GFX_goal_generic_special_forces
		prerequisite = { focus = HUN_danuvia_submachine_guns }
		x = -2
		y = 2
		relative_position_id = HUN_home_defense

		cost = 10

		ai_will_do = {
			factor = 50
		}

		available = {

		}

		bypass = {

		}

		cancel_if_invalid = no
		continue_if_invalid = yes
		available_if_capitulated = no

		complete_tooltip = {

		}

		completion_reward = {
			custom_effect_tooltip = HUN_light_infantry_divisions_doctrine_tech_tt
			custom_effect_tooltip = HUN_light_infantry_divisions_doctrine_unit_tt
			hidden_effect = {
				if = {
					limit = { has_tech = tech_engineers }
					division_template = {
						name = "Light Division"
						priority = 2

						regiments = {
							infantry = { x = 0 y = 0 }
							infantry = { x = 0 y = 1 }
							infantry = { x = 0 y = 2 }

		    	   		 	infantry = { x = 1 y = 0 }
							infantry = { x = 1 y = 1 }
							infantry = { x = 1 y = 2 }
						}
						support = {
							recon = { x = 0 y = 0 }
							artillery = { x = 0 y = 1 }
							engineer = { x = 0 y = 1 }
						}
					}
					else = {
						division_template = {
							name = "Light Division"
							priority = 2

							regiments = {
								infantry = { x = 0 y = 0 }
								infantry = { x = 0 y = 1 }
								infantry = { x = 0 y = 2 }

			    	   		 	infantry = { x = 1 y = 0 }
								infantry = { x = 1 y = 1 }
								infantry = { x = 1 y = 2 }
							}
							support = {
								recon = { x = 0 y = 0 }
								artillery = { x = 0 y = 1 }
								engineer = { x = 0 y = 1 }
							}
						}
					}
				}
				random_owned_controlled_state = {
					prioritize = { 43 }
					limit = { ROOT = { has_full_control_of_state = PREV } }
					create_unit = {
						division = "name = \"1. Light Division\" division_template = \"Light Division\" start_experience_factor = 1.0"
						owner = HUN
					}
				}
			}
			hidden_effect = { set_technology = { HUN_light_infantry_tech = 1 } }
		}
	}

	focus = {
		id = HUN_form_parachute_battalions
		icon = GFX_focus_generic_paratrooper
		prerequisite = { focus = HUN_light_infantry_divisions_doctrine }
		x = -2
		y = 3
		relative_position_id = HUN_home_defense

		cost = 4

		ai_will_do = {
			factor = 50
		}

		available = {

		}

		bypass = {

		}

		cancel_if_invalid = no
		continue_if_invalid = yes
		available_if_capitulated = no

		complete_tooltip = {

		}

		completion_reward = {
			add_tech_bonus = {
				name = HUN_form_parachute_battalions
				bonus = 2.00
				uses = 1
				category = para_tech
			}
		}
	}

	############################
	##### Naval Branch    ######
	############################

}
