focus_tree = {
	id = new_zealander_focus

	country = {
		factor = 0

		modifier = {
			add = 10
			tag = NZL
			has_dlc = "Together for Victory"
		}

		#modifier = {
		#	add = 10
		#	original_tag = NZL
		#	has_dlc = "Together for Victory"
		#}
	}





	############################
	###### NAVY SECTION ########
	############################

	focus = {
		id = NZL_transfer_the_new_zealand_division
		icon = GFX_goal_generic_navy_doctrines_tactics
		x = 7
		y = 0

		cost = 5

		ai_will_do = {
			factor = 2
		}

		available = {

		}

		bypass = {
			NOT = { is_subject_of = ENG }
		}

		cancel_if_invalid = no
		continue_if_invalid = yes
		available_if_capitulated = no

		complete_tooltip = {

		}

		completion_reward = {
			add_ideas = GDU_Commonwealth_Navy_Manpower1		
			custom_effect_tooltip = NZL_transfer_ships_tt
			hidden_effect = {
				load_oob = "NZ_LightCruisers"
			}
			723 = {
				add_resource = {
					type = steel
					amount = 2
				}			
			}						
		}
	}

	focus = {
		id = NZL_form_the_rnzn
		icon = GFX_goal_generic_build_navy
		prerequisite = { focus = NZL_transfer_the_new_zealand_division }
		x = 0
		y = 1
		relative_position_id = NZL_transfer_the_new_zealand_division

		cost = 5

		ai_will_do = {
			factor = 25
		}

		available = {

		}

		bypass = {

		}

		cancel_if_invalid = no
		continue_if_invalid = yes
		available_if_capitulated = no

		complete_tooltip = {

		}

		completion_reward = {
			add_ideas = GDU_Commonwealth_Navy_Manpower2		
			navy_experience = 25
			add_tech_bonus = {
				name = NZL_form_the_rnzn
				bonus = 1.00 
				uses = 2
				category = naval_doctrine
			}
			723 = {
				add_resource = {
					type = steel
					amount = 2
				}			
			}				
		}
	}

	focus = {
		id = NZL_expand_devonport_naval_base
		icon = GFX_goal_generic_construct_naval_dockyard
		prerequisite = { focus = NZL_form_the_rnzn }
		x = -1
		y = 2
		relative_position_id = NZL_transfer_the_new_zealand_division

		cost = 5

		ai_will_do = {
			factor = 25
		}

		available = {

		}

		bypass = {

		}

		cancel_if_invalid = no
		continue_if_invalid = yes
		available_if_capitulated = no

		complete_tooltip = {
			284 = {
				add_extra_state_shared_building_slots = 2
				add_building_construction = {
					type = dockyard
					level = 2
					instant_build = yes
				}
			}
		}

		completion_reward = {
			add_ideas = GDU_Commonwealth_Navy_Manpower3		
			284 = {
				add_extra_state_shared_building_slots = 2
				add_building_construction = {
					type = dockyard
					level = 2
					instant_build = yes
				}
				set_state_flag = NZL_expand_devonport_naval_base_DY
			}
			284 = {
				add_building_construction = {
					type = naval_base
					province = 4543
					level = 4
					instant_build = yes
				}
			}
			723 = {
				add_resource = {
					type = steel
					amount = 4
				}
				add_resource = {
					type = oil
					amount = 4
				}				
			}				
		}
	}

	focus = {
		id = NZL_coastal_defense
		icon = GFX_goal_generic_fortify_city
		prerequisite = { focus = NZL_form_the_rnzn }
		x = 1
		y = 2
		relative_position_id = NZL_transfer_the_new_zealand_division

		cost = 5

		ai_will_do = {
			factor = 25
		}

		available = {
		}

		bypass = {
			NOT = {
				controls_state = 284
			}
			NOT = {
				controls_state = 723
			}
		}

		cancel_if_invalid = no
		continue_if_invalid = yes
		available_if_capitulated = no

		complete_tooltip = {

		}

		completion_reward = {
			every_owned_state = {
				limit = {
					is_controlled_by = ROOT
					OR = {
						state = 284
						state = 723
					}
				}
				add_building_construction = {
					type = coastal_bunker
					province = {
						all_provinces = yes
						limit_to_coastal = yes
					}
					level = 3
					instant_build = yes
				}

				#Extra fort on naval bases
				add_building_construction = {
					type = bunker
					province = {
						all_provinces = yes
						limit_to_naval_base = yes
					}
					level = 2
					instant_build = yes
				}
				add_building_construction = {
					type = coastal_bunker
					province = {
						all_provinces = yes
						limit_to_naval_base = yes
					}
					level = 2
					instant_build = yes
				}
			723 = {
				add_resource = {
					type = steel
					amount = 2
				}			
			}					
			}
		}
	}

	focus = {
		id = NZL_destroyer_effort
		icon = GFX_goal_generic_navy_anti_submarine
		prerequisite = { focus = NZL_expand_devonport_naval_base }
		
		x = -2
		y = 3
		relative_position_id = NZL_transfer_the_new_zealand_division

		cost = 5

		ai_will_do = {
			factor = 20
		}

		available = {

		}

		bypass = {

		}

		cancel_if_invalid = no
		continue_if_invalid = yes
		available_if_capitulated = no

		complete_tooltip = {

		}

		completion_reward = {
			add_ideas = GDU_Commonwealth_Navy_Manpower4		
			add_tech_bonus = {
				name = NZL_destroyer_effort
				bonus = 2.00 
				uses = 1
				technology = improved_ship_hull_light
			}		
			723 = {
				add_resource = {
					type = steel
					amount = 2
				}
				add_resource = {
					type = oil
					amount = 1
				}				
			}				
		}
	}

	focus = {
		id = NZL_submarine_effort
		icon = GFX_goal_generic_navy_submarine
		prerequisite = { focus = NZL_expand_devonport_naval_base }
		
		x = 0
		y = 3
		relative_position_id = NZL_transfer_the_new_zealand_division

		cost = 5

		ai_will_do = {
			factor = 2
		}

		available = {

		}

		bypass = {

		}

		cancel_if_invalid = no
		continue_if_invalid = yes
		available_if_capitulated = no

		complete_tooltip = {

		}

		completion_reward = {
			add_ideas = GDU_Commonwealth_Navy_Manpower4		
			add_tech_bonus = {
				name = NZL_submarine_effort
				bonus = 0.75
				uses = 1
				technology = improved_ship_hull_submarine
			}
			add_tech_bonus = {
				name = NZL_submarine_effort
				bonus = 0.5
				uses = 1
				technology = improved_ship_hull_submarine
			}			
			723 = {
				add_resource = {
					type = steel
					amount = 2
				}
				add_resource = {
					type = oil
					amount = 1
				}				
			}				
		}
	}

	focus = {
		id = NZL_light_cruiser_effort
		icon = GFX_goal_generic_navy_cruiser
		prerequisite = { focus = NZL_destroyer_effort focus = NZL_submarine_effort }
		x = -2
		y = 4
		relative_position_id = NZL_transfer_the_new_zealand_division

		cost = 5

		ai_will_do = {
			factor = 25
		}

		available = {

		}

		bypass = {

		}

		cancel_if_invalid = no
		continue_if_invalid = yes
		available_if_capitulated = no

		complete_tooltip = {

		}

		completion_reward = {
			add_ideas = GDU_Commonwealth_Navy_Manpower7		
			add_tech_bonus = {
				name = NZL_light_cruiser_effort
				bonus = 2.00 
				uses = 1
				technology = improved_ship_hull_cruiser
			}				
			723 = {
				add_resource = {
					type = steel
					amount = 2
				}
				add_resource = {
					type = oil
					amount = 1
				}				
			}				
		}
	}

	focus = {
		id = NZL_capital_ship_effort
		icon = GFX_goal_generic_navy_battleship
		prerequisite = { focus = NZL_destroyer_effort focus = NZL_submarine_effort }
		x = 0
		y = 4
		relative_position_id = NZL_transfer_the_new_zealand_division

		cost = 5

		ai_will_do = {
			factor = 25
		}

		available = {

		}

		bypass = {

		}

		cancel_if_invalid = no
		continue_if_invalid = yes
		available_if_capitulated = no

		complete_tooltip = {

		}

		completion_reward = {
			add_ideas = GDU_Commonwealth_Navy_Manpower7		
			add_tech_bonus = {
				name = NZL_capital_ship_effort
				bonus = 2.00 
				uses = 1
				technology = improved_ship_hull_heavy
			}
			723 = {
				add_resource = {
					type = steel
					amount = 2
				}
				add_resource = {
					type = oil
					amount = 1
				}				
			}				
		}
	}


	############################
	####### AIR SECTION ########
	############################

	focus = {
		id = NZL_expand_the_nzpaf
		icon = GFX_goal_generic_air_doctrine
		x = 12
		y = 0

		cost = 3

		ai_will_do = {
			factor = 2
		}

		available = {

		}

		bypass = {

		}

		cancel_if_invalid = no
		continue_if_invalid = yes
		available_if_capitulated = yes

		complete_tooltip = {

		}

		completion_reward = {
			add_equipment_to_stockpile = {
				type = nav_bomber_equipment_1
				amount = 100
				producer = ENG
			}
			if = {
				limit = {
					ENG = { has_tech = tactical_bomber1 }
				}
				add_equipment_to_stockpile = {
					type = tac_bomber_equipment_1
					amount = 100
					producer = ENG
				}
				else = {
					add_equipment_to_stockpile = {
						type = tac_bomber_equipment_0
						amount = 100
						producer = ENG
					}
				}
			}
		}
	}

	focus = {
		id = NZL_form_the_rnzaf
		icon = GFX_goal_generic_build_airforce
		prerequisite = { focus = NZL_expand_the_nzpaf }
		x = 0
		y = 1
		relative_position_id = NZL_expand_the_nzpaf

		cost = 5

		ai_will_do = {
			factor = 25
		}

		available = {

		}

		bypass = {

		}

		cancel_if_invalid = no
		continue_if_invalid = yes
		available_if_capitulated = no

		complete_tooltip = {
			air_experience = 25
			random_state = {
				limit = {
					has_state_flag = NZL_expand_the_nzpaf_AB
				}
				add_building_construction = {
					type = air_base
					level = 3
					instant_build = yes
				}
			}
			add_tech_bonus = {
				name = NZL_expand_the_nzpaf
				bonus = 1.00 
				uses = 2
				category = air_doctrine
			}
		}

		completion_reward = {
			air_experience = 25
			random_owned_controlled_state = {
				limit = {
					free_building_slots = {
						building = air_base
						size > 1
					}
				}
				add_building_construction = {
					type = air_base
					level = 3
					instant_build = yes
				}
				set_state_flag = NZL_expand_the_nzpaf_AB
			}
			add_tech_bonus = {
				name = NZL_expand_the_nzpaf
				bonus = 1.00 
				uses = 2
				category = air_doctrine
			}
		}
	}

	focus = {
		id = NZL_fighter_focus
		icon = GFX_goal_generic_air_fighter2
		prerequisite = { focus = NZL_form_the_rnzaf }
		
		x = -1
		y = 2
		relative_position_id = NZL_expand_the_nzpaf

		cost = 5

		ai_will_do = {
			factor = 25
		}

		available = {

		}

		bypass = {

		}

		cancel_if_invalid = no
		continue_if_invalid = yes
		available_if_capitulated = yes

		complete_tooltip = {

		}

		completion_reward = {
			add_tech_bonus = {
				name = NZL_fighter_focus
				bonus = 0.5  
				uses = 1
				technology = fighter2
			}
		}
	}

	focus = {
		id = NZL_bomber_focus
		icon = GFX_goal_generic_occupy_start_war
		prerequisite = { focus = NZL_form_the_rnzaf }
		
		x = 1
		y = 2
		relative_position_id = NZL_expand_the_nzpaf

		cost = 5

		ai_will_do = {
			factor = 2
		}

		available = {

		}

		bypass = {

		}

		cancel_if_invalid = no
		continue_if_invalid = yes
		available_if_capitulated = yes

		complete_tooltip = {

		}

		completion_reward = {
			add_tech_bonus = {
				name = NZL_bomber_focus
				bonus = 0.5 
				uses = 1
				technology = tactical_bomber1
				technology = tactical_bomber2
				technology = strategic_bomber1
				technology = strategic_bomber2
			}
		}
	}

	focus = {
		id = NZL_defend_our_islands
		icon = GFX_goal_generic_air_naval_bomber
		prerequisite = { focus = NZL_form_the_rnzaf focus = NZL_coastal_defense }
		x = -3
		y = 3
		relative_position_id = NZL_expand_the_nzpaf

		cost = 5

		ai_will_do = {
			factor = 25
		}

		available = {

		}

		bypass = {

		}

		cancel_if_invalid = no
		continue_if_invalid = yes
		available_if_capitulated = yes

		complete_tooltip = {

		}

		completion_reward = {
			add_tech_bonus = {
				name = NZL_defend_our_islands
				bonus = 1.00 
				uses = 2
				technology = naval_bomber1
				technology = naval_bomber2
			}
		}
	}

	focus = {
		id = NZL_modern_fighters
		icon = GFX_goal_generic_air_fighter
		prerequisite = { focus = NZL_fighter_focus focus = NZL_bomber_focus }
		
		x = -1
		y = 3
		relative_position_id = NZL_expand_the_nzpaf

		cost = 5

		ai_will_do = {
			factor = 25
		}

		available = {

		}

		bypass = {

		}

		cancel_if_invalid = no
		continue_if_invalid = yes
		available_if_capitulated = yes

		complete_tooltip = {

		}

		completion_reward = {
			add_tech_bonus = {
				name = NZL_modern_fighters
				bonus = 0.5  
				uses = 1
				technology = early_fighter
				technology = fighter1
				technology = fighter2
				category = cat_heavy_fighter
			}
		}
	}

	focus = {
		id = NZL_heavy_bombers
		icon = GFX_goal_generic_air_bomber
		prerequisite = { focus = NZL_fighter_focus focus = NZL_bomber_focus }
		
		x = 1
		y = 3
		relative_position_id = NZL_expand_the_nzpaf

		cost = 5

		ai_will_do = {
			factor = 2
		}

		available = {

		}

		bypass = {

		}

		cancel_if_invalid = no
		continue_if_invalid = yes
		available_if_capitulated = yes

		complete_tooltip = {

		}

		completion_reward = {
			add_tech_bonus = {
				name = NZL_heavy_bombers
				bonus = 0.5  
				uses = 2
				technology = strategic_bomber1
				technology = strategic_bomber2
			}
		}
	}


	############################
	##### INDUSTRY SECTION #####
	############################

	focus = {
		id = NZL_national_roads_board
		icon = GFX_goal_generic_construct_infrastructure
		x = 17
		y = 0

		cost = 5

		ai_will_do = {
			factor = 8
		}

		cancel_if_invalid = no
		continue_if_invalid = yes
		available_if_capitulated = no

		complete_tooltip = {
		}

		completion_reward = {
			284 = {
				add_building_construction = {
					type = infrastructure
					level = 2
					instant_build = yes
				}
				set_state_flag = NZL_national_roads_board_Inf1
			}

			723 = {
				add_building_construction = {
					type = infrastructure
					level = 2
					instant_build = yes
				}
				set_state_flag = NZL_national_roads_board_Inf2
			}
		}
	}

	focus = {
		id = NZL_new_zealand_steel
		icon = GFX_goal_generic_production2
		prerequisite = { focus = NZL_national_roads_board }
		x = -2
		y = 1
		relative_position_id = NZL_national_roads_board

		cost = 5

		ai_will_do = {
			factor = 25
		}

		available = {
			controls_state = 284
		}

		cancel_if_invalid = no
		continue_if_invalid = yes
		available_if_capitulated = no

		complete_tooltip = {

		}

		completion_reward = {
			284 = {
				add_resource = {
					type = steel
					amount = 35
				}
			}
		}
	}

	focus = {
		id = NZL_taranaki_oil
		icon = GFX_goal_generic_oil_refinery
		prerequisite = { focus = NZL_national_roads_board }
		x = 0
		y = 1
		relative_position_id = NZL_national_roads_board

		cost = 10

		ai_will_do = {
			factor = 25
		}

		available = {
			controls_state = 284
		}

		bypass = {

		}

		cancel_if_invalid = no
		continue_if_invalid = yes
		available_if_capitulated = no

		complete_tooltip = {

		}

		completion_reward = {
			284 = {
				add_resource = {
					type = oil
					amount = 20
				}
			}
		}
	}

	focus = {
		id = NZL_wairarapa_sheep_farms
		icon = GFX_goal_generic_consumer_goods
		prerequisite = { focus = NZL_national_roads_board }
		x = 2
		y = 1
		relative_position_id = NZL_national_roads_board

		cost = 10

		ai_will_do = {
			factor = 25
			modifier = {
				factor = 2
				has_completed_focus = NZL_bureau_of_industry
			}
		}

		available = {

		}

		bypass = {

		}

		cancel_if_invalid = no
		continue_if_invalid = yes
		available_if_capitulated = no

		complete_tooltip = {

		}

		completion_reward = {
			add_ideas = NZL_wairarapa_sheep_farms
		}
	}

	focus = {
		id = NZL_central_department_of_industry
		icon = GFX_goal_generic_production
		prerequisite = { focus = NZL_new_zealand_steel focus = NZL_taranaki_oil }
		x = -2
		y = 2
		relative_position_id = NZL_national_roads_board

		cost = 10

		ai_will_do = {
			factor = 25
			modifier = {
				factor = 2
				has_completed_focus = NZL_wairarapa_sheep_farms
			}
		}

		cancel_if_invalid = no
		continue_if_invalid = yes
		available_if_capitulated = no

		complete_tooltip = {
		}

		completion_reward = {
			723 = {
				add_extra_state_shared_building_slots = 1
				add_building_construction = {
					type = industrial_complex
					level = 1
					instant_build = yes
				}
				set_state_flag = NZL_bureau_of_industry_IC1
			}
		}
	}

	focus = {
		id = NZL_bureau_of_industry
		icon = GFX_goal_generic_production
		prerequisite = { focus = NZL_new_zealand_steel focus = NZL_taranaki_oil }
		x = 0
		y = 2
		relative_position_id = NZL_national_roads_board

		cost = 10

		ai_will_do = {
			factor = 25
			modifier = {
				factor = 2
				has_completed_focus = NZL_wairarapa_sheep_farms
			}
		}

		cancel_if_invalid = no
		continue_if_invalid = yes
		available_if_capitulated = no

		complete_tooltip = {
		}

		completion_reward = {
			723 = {
				add_extra_state_shared_building_slots = 2
				add_building_construction = {
					type = industrial_complex
					level = 2
					instant_build = yes
				}
				set_state_flag = NZL_bureau_of_industry_IC1
			}
		}
	}

	focus = {
		id = NZL_department_of_scientific_and_industrial_research
		icon = GFX_focus_research
		prerequisite = { focus = NZL_bureau_of_industry focus = NZL_central_department_of_industry}
		x = -1
		y = 3
		relative_position_id = NZL_national_roads_board

		cost = 10

		ai_will_do = {
			factor = 35
			modifier = {
				factor = 2
				has_completed_focus = NZL_heavy_bombers
			}
		}

		available = {

		}

		bypass = {

		}

		cancel_if_invalid = no
		continue_if_invalid = yes
		available_if_capitulated = yes

		complete_tooltip = {

		}

		completion_reward = {
			add_research_slot = 1
		}
	}

	focus = {
		id = NZL_industrial_conscription
		icon = GFX_goal_generic_construct_civilian
		prerequisite = { focus = NZL_wairarapa_sheep_farms }
		prerequisite = { focus = NZL_bureau_of_industry }
		x = 1
		y = 3
		relative_position_id = NZL_national_roads_board

		cost = 10

		ai_will_do = {
			factor = 25
			modifier = {
				factor = 2
				has_completed_focus = NZL_domestic_arms_industry
			}
		}

		available = {

		}

		bypass = {

		}

		cancel_if_invalid = no
		continue_if_invalid = yes
		available_if_capitulated = no

		complete_tooltip = {
		}

		completion_reward = {
			723 = {
				add_extra_state_shared_building_slots = 1
				add_building_construction = {
					type = arms_factory
					level = 1
					instant_build = yes
				}
				set_state_flag = NZL_industrial_conscription_AF
			}
		}
	}

	focus = {
		id = NZL_think_big
		icon = GFX_goal_generic_construct_civ_factory
		prerequisite = { focus = NZL_industrial_conscription }
		prerequisite = { focus = NZL_domestic_arms_industry }
		x = 2
		y = 4
		relative_position_id = NZL_national_roads_board

		cost = 10

		ai_will_do = {
			factor = 25
			modifier = {
				factor = 2
				has_completed_focus = NZL_department_of_scientific_and_industrial_research
			}
		}

		available = {

		}

		bypass = {

		}

		cancel_if_invalid = no
		continue_if_invalid = yes
		available_if_capitulated = no

		complete_tooltip = {
		}

		completion_reward = {
			723 = {
				add_extra_state_shared_building_slots = 2
				add_building_construction = {
					type = industrial_complex
					level = 2
					instant_build = yes
				}
				set_state_flag = NZL_think_big_IC1
			}
			284 = {
				add_extra_state_shared_building_slots = 1
				add_building_construction = {
					type = arms_factory
					level = 1
					instant_build = yes
				}
				set_state_flag = NZL_think_big_AF
			}
		}
	}

	focus = {
		id = NZL_project_seal
		icon = GFX_focus_wonderweapons
		prerequisite = { focus = NZL_heavy_bombers focus = NZL_modern_fighters }
		prerequisite = { focus = NZL_department_of_scientific_and_industrial_research }
		x = -2
		y = 4
		relative_position_id = NZL_national_roads_board

		cost = 10

		ai_will_do = {
			factor = 35
		}

		available = {

		}

		bypass = {

		}

		cancel_if_invalid = no
		continue_if_invalid = yes
		available_if_capitulated = no

		complete_tooltip = {

		}

		completion_reward = {
			add_tech_bonus = {
				name = NZL_project_seal
				bonus = 1.00 
				uses = 2
				category = nuclear
			}
		}
	}

	focus = {
		id = NZL_expand_the_university_of_auckland
		icon = GFX_Noras_Auckland
		prerequisite = { focus = NZL_think_big }
		prerequisite = { focus = NZL_department_of_scientific_and_industrial_research }
		x = 0
		y = 5
		relative_position_id = NZL_national_roads_board

		cost = 10

		ai_will_do = {
			factor = 35
		}

		available = {

		}

		bypass = {

		}

		cancel_if_invalid = no
		continue_if_invalid = yes
		available_if_capitulated = no

		complete_tooltip = {

		}

		completion_reward = {
			add_research_slot = 1
		}
	}


	############################
	####### ARMY SECTION #######
	############################

	focus = {
		id = NZL_army_reforms
		icon = GFX_goal_generic_army_doctrines
		x = 22
		y = 0

		cost = 10

		ai_will_do = {
			factor = 2
		}

		available = {

		}

		bypass = {

		}

		cancel_if_invalid = no
		continue_if_invalid = yes
		available_if_capitulated = yes

		complete_tooltip = {

		}

		completion_reward = {
			army_experience = 25
			add_tech_bonus = {
				name = NZL_army_reforms
				bonus = 0.5 
				uses = 1
				category = land_doctrine
			}
			set_technology = { bicycle_infantry = 1 }
		}
	}

	focus = {
		id = NZL_charlton_automatic_rifle
		icon = GFX_goal_generic_small_arms
		prerequisite = { focus = NZL_army_reforms }
		x = -1
		y = 1
		relative_position_id = NZL_army_reforms

		cost = 5

		ai_will_do = {
			factor = 25
			modifier = {
				factor = 2
				has_completed_focus = NZL_industrial_conscription
			}
		}

		available = {

		}

		bypass = {

		}

		cancel_if_invalid = no
		continue_if_invalid = yes
		available_if_capitulated = yes

		complete_tooltip = {

		}

		completion_reward = {
			add_tech_bonus = {
				name = NZL_charlton_automatic_rifle
				bonus = 1.00 
				uses = 1
				category = infantry_weapons
			}
		}
	}

	focus = {
		id = NZL_bob_semple_tank
		icon = GFX_focus_NZL_bob_semple_tank		#VEHICLE OF GLORIOUS DESIGN BOB SEMPLE TANK MUST HAVE UNIQUE ICON
		prerequisite = { focus = NZL_army_reforms }
		x = 1
		y = 1
		relative_position_id = NZL_army_reforms

		cost = 10

		ai_will_do = {
			factor = 25
		}

		available = {

		}

		bypass = {

		}

		cancel_if_invalid = no
		continue_if_invalid = yes
		available_if_capitulated = yes

		complete_tooltip = {

		}

		completion_reward = {
			add_ideas = NZL_bob_semple_tank
			add_tech_bonus = {
				name = NZL_bob_semple_tank
				bonus = 1.00 
				uses = 1
				technology = basic_light_tank
			}
		}
	}

	focus = {
		id = NZL_domestic_arms_industry
		icon = GFX_goal_generic_construct_mil_factory
		prerequisite = { focus = NZL_charlton_automatic_rifle }
		x = -1
		y = 2
		relative_position_id = NZL_army_reforms

		cost = 5

		ai_will_do = {
			factor = 25
			modifier = {
				factor = 2
				has_completed_focus = NZL_industrial_conscription
			}
		}

		available = {

		}

		bypass = {

		}

		cancel_if_invalid = no
		continue_if_invalid = yes
		available_if_capitulated = no

		complete_tooltip = {
			284 = {
				add_extra_state_shared_building_slots = 1
				add_building_construction = {
					type = arms_factory
					level = 1
					instant_build = yes
				}
			}
		}

		completion_reward = {
			284 = {
				add_extra_state_shared_building_slots = 1
				add_building_construction = {
					type = arms_factory
					level = 1
					instant_build = yes
				}
				set_state_flag = NZL_domestic_arms_industry_AF
			}
		}
	}

	focus = {
		id = NZL_schofield_tank
		icon = GFX_goal_generic_army_tanks
		prerequisite = { focus = NZL_bob_semple_tank }
		x = 1
		y = 2
		relative_position_id = NZL_army_reforms

		cost = 10

		ai_will_do = {
			factor = 25
		}

		available = {

		}

		bypass = {

		}

		cancel_if_invalid = no
		continue_if_invalid = yes
		available_if_capitulated = yes

		complete_tooltip = {

		}

		completion_reward = {
			add_tech_bonus = {
				name = NZL_schofield_tank
				bonus = 1.00 
				uses = 1
				
				category = cat_light_armor
				category = cat_medium_armor
			}
		}
	}

	focus = {
		id = NZL_long_range_patrol
		icon = GFX_goal_generic_special_forces
		prerequisite = { focus = NZL_domestic_arms_industry }
		x = -1
		y = 3
		relative_position_id = NZL_army_reforms

		cost = 5

		ai_will_do = {
			factor = 25
		}

		available = {

		}

		bypass = {

		}

		cancel_if_invalid = no
		continue_if_invalid = yes
		available_if_capitulated = yes

		complete_tooltip = {

		}

		completion_reward = {
			add_tech_bonus = {
				name = NZL_long_range_patrol
				bonus = 1.00 
				uses = 2
				category = marine_tech
			}
		}
	}

	focus = {
		id = NZL_artillery_focus
		icon = GFX_goal_generic_army_artillery
		prerequisite = { focus = NZL_schofield_tank }
		x = 1
		y = 3
		relative_position_id = NZL_army_reforms

		cost = 10

		ai_will_do = {
			factor = 25
		}

		available = {

		}

		bypass = {

		}

		cancel_if_invalid = no
		continue_if_invalid = yes
		available_if_capitulated = yes

		complete_tooltip = {

		}

		completion_reward = {
			add_tech_bonus = {
				name = NZL_artillery_focus
				bonus = 1.00 
				uses = 2
				category = artillery
			}
		}
	}



	focus = {
		id = NZL_big_bob_tank
		icon = GFX_goal_generic_build_tank
		prerequisite = { focus = NZL_artillery_focus }
		x = 1
		y = 4
		relative_position_id = NZL_army_reforms

		cost = 5

		ai_will_do = {
			factor = 25
		}

		available = {

		}

		bypass = {

		}

		cancel_if_invalid = no
		continue_if_invalid = yes
		available_if_capitulated = yes

		complete_tooltip = {

		}

		completion_reward = {
			add_tech_bonus = {
				name = NZL_big_bob_tank
				bonus = 2.00 
				uses = 1
				technology = super_heavy_tank
			}		
		}
	}

	############################
	##### POLITICS SECTION #####
	############################

	focus = {
		id = NZL_the_first_labor_government
		icon = GFX_Noras_NZLLabour
		x = 3
		y = 0

		cost = 10

		ai_will_do = {
			factor = 2
		}

		available = {

		}

		bypass = {

		}

		cancel_if_invalid = no
		continue_if_invalid = yes
		available_if_capitulated = no

		complete_tooltip = {

		}

		completion_reward = {
			add_ideas = NZL_first_labor_government
		}
	}

	############################
	## SHARED POLITICS SECTION #
	############################

	focus = {
		id = NZL_ratana_alliance
		icon = GFX_goal_anschluss
		prerequisite = { focus = NZL_the_first_labor_government }
		x = -3
		y = 1
		relative_position_id = NZL_the_first_labor_government

		cost = 10

		ai_will_do = {
			factor = 25
		}

		available = {

		}

		bypass = {

		}

		cancel_if_invalid = no
		continue_if_invalid = yes
		available_if_capitulated = no

		complete_tooltip = {

		}

		completion_reward = {
			add_ideas = NZL_ratana_alliance
		}
	}

	focus = {
		id = NZL_maori_affairs_act
		icon = GFX_goal_generic_construction2
		prerequisite = { focus = NZL_ratana_alliance }
		x = -1
		y = 1
		relative_position_id = NZL_ratana_alliance

		cost = 10

		ai_will_do = {
			factor = 25
		}

		available = {
			controls_state = 284
			controls_state = 723
		}

		bypass = {

		}

		cancel_if_invalid = no
		continue_if_invalid = yes
		available_if_capitulated = no

		complete_tooltip = {

		}

		completion_reward = {
			284 = {
				add_extra_state_shared_building_slots = 2
			}
			723 = {
				add_extra_state_shared_building_slots = 2
			}
			add_stability = -0.02
		}
	}

	focus = {
		id = NZL_social_security_act
		icon = GFX_goal_generic_forceful_treaty
		prerequisite = { focus = NZL_ratana_alliance }
		x = 1
		y = 1
		relative_position_id = NZL_ratana_alliance

		cost = 10

		ai_will_do = {
			factor = 25
		}

		available = {

		}

		bypass = {

		}

		cancel_if_invalid = no
		continue_if_invalid = yes
		available_if_capitulated = no

		complete_tooltip = {

		}

		completion_reward = {
			add_ideas = NZL_social_security_act
		}
	}

	focus = {
		id = NZL_the_manpower_act
		icon = GFX_goal_generic_allies_build_infantry
		prerequisite = { focus = NZL_social_security_act focus = NZL_maori_affairs_act }
		x = 0
		y = 2
		relative_position_id = NZL_ratana_alliance

		cost = 10

		ai_will_do = {
			factor = 25
		}

		available = {

		}

		bypass = {

		}

		cancel_if_invalid = no
		continue_if_invalid = yes
		available_if_capitulated = no

		complete_tooltip = {

		}

		completion_reward = {
			add_ideas = NZL_the_manpower_act
		}
	}

	focus = {
		id = NZL_amend_the_maori_affairs_act
		icon = GFX_goal_generic_construct_civilian
		prerequisite = { focus = NZL_the_manpower_act }
		
		x = -1
		y = 3
		relative_position_id = NZL_ratana_alliance

		cost = 10

		ai_will_do = {
			factor = 1
		}

		available = {

		}

		bypass = {

		}

		cancel_if_invalid = no
		continue_if_invalid = yes
		available_if_capitulated = no

		complete_tooltip = {

		}

		completion_reward = {
			284 = {
				add_extra_state_shared_building_slots = 4
			}
			723 = {
				add_extra_state_shared_building_slots = 4
			}
			add_stability = -0.03
		}
	}

	focus = {
		id = NZL_waitangi_tribunal
		icon = GFX_goal_generic_neutrality_focus
		prerequisite = { focus = NZL_the_manpower_act }
		x = 1
		y = 3
		relative_position_id = NZL_ratana_alliance

		cost = 10

		ai_will_do = {
			factor = 8
		}

		available = {

		}

		bypass = {

		}

		cancel_if_invalid = no
		continue_if_invalid = yes
		available_if_capitulated = no

		complete_tooltip = {

		}

		completion_reward = {
			add_ideas = NZL_waitangi_tribunal
		}
	}

	focus = {
		id = NZL_maori_conscription
		icon = GFX_goal_generic_small_arms
		prerequisite = { focus = NZL_amend_the_maori_affairs_act }
		x = -1
		y = 4
		relative_position_id = NZL_ratana_alliance

		cost = 10

		ai_will_do = {
			factor = 25
		}

		available = {

		}

		bypass = {

		}

		cancel_if_invalid = no
		continue_if_invalid = yes
		available_if_capitulated = no

		complete_tooltip = {

		}

		completion_reward = {
			add_ideas = NZL_maori_conscription
		}
	}

	


	#########################
	### THE CLASH SECTION ###
	#########################

	focus = {
		id = NZL_strengthen_the_commonwealth
		icon = GFX_Noras_NZLCommonwealth
		prerequisite = { focus = NZL_the_first_labor_government }
		x = 0
		y = 1
		relative_position_id = NZL_the_first_labor_government

		cost = 5

		ai_will_do = {
			factor = 30
		}

		available = {

		}

		bypass = {

		}

		cancel_if_invalid = no
		continue_if_invalid = yes
		available_if_capitulated = no

		complete_tooltip = {

		}

		completion_reward = {
			modify_tech_sharing_bonus = {
			  	id = commonwealth_research
			   	bonus = 0.05
			}
			add_political_power = 100
			add_opinion_modifier = { target = ENG modifier = NZL_strengthen_ties }
			ENG = { add_opinion_modifier = { target = NZL modifier = NZL_strengthen_ties } }
		}
	}

	############################
	# GO COMMONWEALTH SECTION ##
	############################

#	focus = {
#		id = NZL_2nzef
#		icon = GFX_goal_generic_position_armies
#		prerequisite = { focus = NZL_strengthen_the_commonwealth }
#		x = 0
#		y = 1
#		relative_position_id = NZL_strengthen_the_commonwealth
#
#		cost = 5
#
#		ai_will_do = {
#			factor = 25
#		}
#
#		available = {
#
#		}
#
#		bypass = {
#
#		}
#
#		cancel_if_invalid = no
#		continue_if_invalid = yes
#		available_if_capitulated = no
#
#		complete_tooltip = {
#
#		}
#
#		completion_reward = {
#			add_ideas = NZL_2nzef
#		}
#	}

	focus = {
		id = NZL_technology_sharing_with_britain
		icon = GFX_goal_tfv_generic_tech_sharing
		prerequisite = { focus = NZL_strengthen_the_commonwealth }
		x = 0
		y = 2
		relative_position_id = NZL_strengthen_the_commonwealth

		cost = 5

		ai_will_do = {
			factor = 30
		}

		available = {
			ENG = { has_government = ROOT }
			is_in_tech_sharing_group = commonwealth_research
		}

		bypass = {

		}

		cancel_if_invalid = no
		continue_if_invalid = yes
		available_if_capitulated = yes

		complete_tooltip = {

		}

		completion_reward = {
			modify_tech_sharing_bonus = {
 				id = commonwealth_research
 				bonus = 0.05  # we get 20% higher bonus from this group
			}
		}
	}

	focus = {
		id = NZL_arrest_pacifist_leaders
		icon = GFX_Noras_arrestpacifist
		prerequisite = { focus = NZL_technology_sharing_with_britain }
		x = 0
		y = 3
		relative_position_id = NZL_strengthen_the_commonwealth

		cost = 5

		ai_will_do = {
			factor = 25
		}

		available = {

		}

		bypass = {

		}

		cancel_if_invalid = no
		continue_if_invalid = yes
		available_if_capitulated = no

		complete_tooltip = {

		}

		completion_reward = {
			add_ideas = NZL_stomp_out_pacifism
		}
	}
	
	
	
	
	focus = {
		id = NZL_synthetic_rubber
		icon = GFX_focus_generic_rubber
		prerequisite = { focus = NZL_expand_the_university_of_auckland }
		x = 0
		y = 1
		relative_position_id = NZL_expand_the_university_of_auckland
		cost = 10
		ai_will_do = {
			factor = 4
		}

		available = {
			has_war_with = JAP
		}

		completion_reward = {
			swap_ideas = {
				remove_idea = GDU_refinery_prebuild_disincentive
				add_idea = NZL_synthetic_rubber
			}
			add_tech_bonus = {
				name = NZL_rubber
				bonus = 1
				uses = 1
				technology = rubber_processing
				technology = improved_rubber_processing
				technology = advanced_rubber_processing
				technology = modern_rubber_processing
			}
		}
	}
}