equipment_modules = {


#   ###  ##  #  # ###     ###   ##  ### ### ### ###  #   # 
#    #  #    #  #  #      #  # #  #  #   #  #   #  #  # #  
#    #  # ## ####  #      ###  ####  #   #  ##  ###    #   
#    #  #  # #  #  #      #  # #  #  #   #  #   #  #   #   
### ###  ##  #  #  #      ###  #  #  #   #  ### #  #   #   



	ship_light_battery_1 = {
		category = ship_light_battery
		sfx = sfx_ui_sd_module_turret
		
		add_stats = {
			lg_attack = 1
			build_cost_ic = 90	
		}
		multiply_stats = {
			naval_speed = -0.005
		}		
		add_average_stats = {
			lg_armor_piercing = 1
		}
		
		can_convert_from = {
			module_category = ship_light_battery
			convert_cost_ic = 60
		}

		critical_parts = { damaged_light_guns }
	}

	ship_light_battery_2 = {
		category = ship_light_battery
		parent = ship_light_battery_1
		sfx = sfx_ui_sd_module_turret
		
		add_stats = {
			lg_attack = 1.5
			build_cost_ic = 120
			
		}
		multiply_stats = {
			naval_speed = -0.005
		}		
		add_average_stats = {
			lg_armor_piercing = 2
		}
		
		can_convert_from = {
			module_category = ship_light_battery
			convert_cost_ic = 75 #conversion cost from ANY ship_light_battery module
		}
		
		can_convert_from = {
			module = ship_light_battery_1
			convert_cost_ic = 45 #conversion cost from that specific module
		}
		critical_parts = { damaged_light_guns }
	}

	ship_light_battery_3 = {
		category = ship_light_battery
		parent = ship_light_battery_2
		sfx = sfx_ui_sd_module_turret
		
		add_stats = {
			lg_attack = 2.5
			build_cost_ic = 150			
		}
		multiply_stats = {
			naval_speed = -0.005
		}		
		add_average_stats = {
			lg_armor_piercing = 2.5
		}
		
		can_convert_from = {
			module_category = ship_light_battery
			convert_cost_ic = 75
		}
		
		can_convert_from = {
			module= ship_light_battery_2
			convert_cost_ic = 45
		}
		critical_parts = { damaged_light_guns }
	}

	ship_light_battery_4 = {
		category = ship_light_battery
		parent = ship_light_battery_3
		sfx = sfx_ui_sd_module_turret
		
		add_stats = {
			lg_attack = 3.25
			build_cost_ic = 175	
		}
		multiply_stats = {
			naval_speed = -0.005
		}		
		build_cost_resources = {
		}
		add_average_stats = {
			lg_armor_piercing = 2.5
		}
		
		can_convert_from = {
			module_category = ship_light_battery
			convert_cost_ic = 190
		}
			
		can_convert_from = {
			module = ship_light_battery_3
			convert_cost_ic = 120
		}
		critical_parts = { damaged_light_guns }
	}
	dp_light_battery = {
		category = ship_light_battery
		gfx = ship_light_battery_5
		sfx = sfx_ui_sd_module_turret
	
		add_stats = {
			lg_attack = 2
			anti_air_attack = 0.5
			build_cost_ic = 300
		}
		multiply_stats = {
			naval_speed = -0.005
		}		
		build_cost_resources = {
		}
		add_average_stats = {
			lg_armor_piercing = 2.0
		}
		
		can_convert_from = {
			module_category = ship_light_battery
			convert_cost_ic = 230
		}
		critical_parts = { damaged_light_guns }
	}


#  # ###  ##  #   # #   #     ###   ##  ### ### ### ###  #   # 
#  # #   #  # #   #  # #      #  # #  #  #   #  #   #  #  # #  
#### ##  ####  # #    #       ###  ####  #   #  ##  ###    #   
#  # #   #  #  # #    #       #  # #  #  #   #  #   #  #   #   
#  # ### #  #   #     #       ###  #  #  #   #  ### #  #   #   



	ship_heavy_battery_1 = {
		category = ship_heavy_battery
		sfx = sfx_ui_sd_module_turret
		add_equipment_type = capital_ship
		
		add_stats = {
			
			hg_attack = 11
			build_cost_ic = 1275
		}
		multiply_stats = {
			naval_speed = -0.02
		}		
		add_average_stats = {
			hg_armor_piercing = 105
		}
		build_cost_resources = {
		}
		can_convert_from = {
			module_category = ship_heavy_battery
			convert_cost_ic = 700
		}
		critical_parts = { damaged_heavy_guns }
	}

	ship_heavy_battery_2 = {
		category = ship_heavy_battery
		parent = ship_heavy_battery_1
		sfx = sfx_ui_sd_module_turret
		add_equipment_type = capital_ship
		
		add_stats = {
			hg_attack = 12.5
			build_cost_ic = 1350
		}
		multiply_stats = {
			naval_speed = -0.02
		}
		add_average_stats = {
			hg_armor_piercing = 120
		}
		build_cost_resources = {
		}
		can_convert_from = {
			module_category = ship_heavy_battery
			convert_cost_ic = 900
		}
		
		can_convert_from = {
			module = ship_heavy_battery_1
			convert_cost_ic = 600
		}
		critical_parts = { damaged_heavy_guns }
	}

	ship_heavy_battery_3 = {
		category = ship_heavy_battery
		parent = ship_heavy_battery_2
		sfx = sfx_ui_sd_module_turret
		add_equipment_type = capital_ship
		
		add_stats = {
			hg_attack = 14.25
			build_cost_ic = 1450
		}
		multiply_stats = {
			naval_speed = -0.02
		}
		add_average_stats = {
			hg_armor_piercing = 135
		}
		build_cost_resources = {
		}
		can_convert_from = {
			module_category = ship_heavy_battery
			convert_cost_ic = 1200
		}
		
		can_convert_from = {
			module = ship_heavy_battery_2
			convert_cost_ic = 600
		}
		critical_parts = { damaged_heavy_guns }
	}

	ship_heavy_battery_4 = {
		category = ship_heavy_battery
		parent = ship_heavy_battery_3
		sfx = sfx_ui_sd_module_turret
		add_equipment_type = capital_ship
		
		add_stats = {
			
			hg_attack = 16.25
			build_cost_ic = 1550
			
		}
		multiply_stats = {
			naval_speed = -0.02
		}
		add_average_stats = {
			hg_armor_piercing = 150
		}
		build_cost_resources = {
		}
		can_convert_from = {
			module_category = ship_heavy_battery
			convert_cost_ic = 1800
		}
		
		can_convert_from = {
			module = ship_heavy_battery_3
			convert_cost_ic = 800
		}
		critical_parts = { damaged_heavy_guns }
	}

	ship_super_heavy_battery_1 = {
		category = ship_super_heavy_battery
		sfx = sfx_ui_sd_module_turret
		gfx = ship_heavy_battery_5
		add_equipment_type = capital_ship
		
		add_stats = {
			hg_attack = 16
			build_cost_ic = 1800
		}
		build_cost_resources = {
		}
		multiply_stats = {
			naval_speed = -0.02
		}
		add_average_stats = {
			hg_armor_piercing = 210
		}
		critical_parts = { damaged_heavy_guns }
	}


#   # ### ###  ### #  # #   #     ###   ##  ### ### ### ###  #   # 
## ## #   #  #  #  #  # ## ##     #  # #  #  #   #  #   #  #  # #  
# # # ##  #  #  #  #  # # # #     ###  ####  #   #  ##  ###    #   
#   # #   #  #  #  #  # #   #     #  # #  #  #   #  #   #  #   #   
#   # ### ###  ###  ##  #   #     ###  #  #  #   #  ### #  #   #   


	ship_medium_battery_1 = {
		category = ship_medium_battery
		sfx = sfx_ui_sd_module_turret
		add_equipment_type = capital_ship
		add_stats = {
			hg_attack = 6.75
			build_cost_ic = 750
			surface_visibility = 0.0
		}
		multiply_stats = {
			naval_speed = -0.04
			max_strength = 0.4
		}
		add_average_stats = {
			hg_armor_piercing = 11
			surface_visibility = 15
		}
		can_convert_from = {
			module_category = ship_light_battery
			convert_cost_ic = 400
		}
		can_convert_from = {
			module_category = ship_medium_battery
			convert_cost_ic = 400
		}
		critical_parts = { damaged_heavy_guns }
	}
	ship_medium_battery_2 = {
		category = ship_medium_battery
		parent = ship_medium_battery_1
		sfx = sfx_ui_sd_module_turret

		add_equipment_type = capital_ship
		add_stats = {
			hg_attack = 7.5
			build_cost_ic = 800
			surface_visibility = 0.0
		}
		multiply_stats = {
			naval_speed = -0.04
			max_strength = 0.4
		}
		add_average_stats = {
			hg_armor_piercing = 12
			surface_visibility = 15			
		}
		can_convert_from = {
			module_category = ship_medium_battery
			convert_cost_ic = 400
		}
		can_convert_from = {
			module = ship_medium_battery_1
			convert_cost_ic = 300
		}
		critical_parts = { damaged_heavy_guns }
	}
	ship_medium_battery_3 = {
		category = ship_medium_battery
		parent = ship_medium_battery_2
		add_equipment_type = capital_ship
		sfx = sfx_ui_sd_module_turret

		add_stats = {
			hg_attack = 8.5
			build_cost_ic = 850
			surface_visibility = 0.0
		}
		multiply_stats = {
			naval_speed = -0.04
			max_strength = 0.4
		}
		add_average_stats = {
			hg_armor_piercing = 13
			surface_visibility = 15
		}
		can_convert_from = {
			module_category = ship_medium_battery
			convert_cost_ic = 500
		}
		can_convert_from = {
			module = ship_medium_battery_2
			convert_cost_ic = 350
		}
		critical_parts = { damaged_heavy_guns }
	}
	ship_medium_battery_4 = {
		category = ship_medium_battery
		parent = ship_medium_battery_3
		add_equipment_type = capital_ship
		sfx = sfx_ui_sd_module_turret

		add_stats = {
			hg_attack = 9.75
			build_cost_ic = 900
			surface_visibility = 0.0
			surface_visibility = 15			
		}
		multiply_stats = {
			naval_speed = -0.04
			max_strength = 0.4
		}
		add_average_stats = {
			hg_armor_piercing = 14
		}
		can_convert_from = {
			module_category = ship_medium_battery
			convert_cost_ic = 600
		}
		can_convert_from = {
			module = ship_medium_battery_3
			convert_cost_ic = 400
		}
		critical_parts = { damaged_heavy_guns }
	}
	ship_light_medium_battery_1 = {
		category = ship_medium_battery
		gui_category = ship_light_battery

		sfx = sfx_ui_sd_module_turret

		add_stats = {	
			lg_attack = 4
			build_cost_ic = 225
		}
		multiply_stats = {
			naval_speed = -0.01
		}
		add_average_stats = {
			lg_armor_piercing = 5.5
			max_strength = 20
		}
		can_convert_from = {
			module_category = ship_medium_battery
			convert_cost_ic = 500
		}
		critical_parts = { damaged_light_guns }
	}
	ship_light_medium_battery_2 = {
		category = ship_medium_battery
		gui_category = ship_light_battery
		parent = ship_light_medium_battery_1
		sfx = sfx_ui_sd_module_turret

		add_stats = {	
			lg_attack = 5.25
			build_cost_ic = 275
		}
		multiply_stats = {
			naval_speed = -0.01
		}
		add_average_stats = {
			lg_armor_piercing = 7.0
			max_strength = 20
		}
		can_convert_from = {
			module_category = ship_medium_battery
			convert_cost_ic = 400
		}
		can_convert_from = {
			module = ship_light_medium_battery_1
			convert_cost_ic = 300
		}
		critical_parts = { damaged_light_guns }
	}
	ship_light_medium_battery_3 = {
		category = ship_medium_battery
		gui_category = ship_light_battery
		parent = ship_light_medium_battery_2
		sfx = sfx_ui_sd_module_turret
		
		add_stats = {
			
			lg_attack = 6.5
			build_cost_ic = 300
		}
		multiply_stats = {
			naval_speed = -0.01
		}
		add_average_stats = {
			lg_armor_piercing = 8
			max_strength = 20
		}
		build_cost_resources = {
		}
		can_convert_from = {
			module_category = ship_medium_battery
			convert_cost_ic = 500
		}
		can_convert_from = {
			module = ship_light_medium_battery_2
			convert_cost_ic = 350
		}
		critical_parts = { damaged_light_guns }
	}
	ship_light_medium_battery_4 = {
		category = ship_medium_battery
		sfx = sfx_ui_sd_module_turret
		gui_category = ship_light_battery
		parent = ship_light_medium_battery_3
		add_stats = {
			
			lg_attack = 8.25
			
			build_cost_ic = 350
		}
		multiply_stats = {
			naval_speed = -0.01
		}
		add_average_stats = {
			lg_armor_piercing = 9
			max_strength = 20
		}
		build_cost_resources = {
		}
		can_convert_from = {
			module_category = ship_medium_battery
			convert_cost_ic = 600
		}
		can_convert_from = {
			module = ship_light_medium_battery_3
			convert_cost_ic = 400
		}
		critical_parts = { damaged_light_guns }
	}

 ## ###  ##   ##  #  # ###   ##  ###  ### ###  ## 
#   #   #  # #  # ## # #  # #  # #  #  #  #   #   
 #  ##  #    #  # # ## #  # #### ###   #  ##   #  
  # #   #  # #  # #  # #  # #  # #  #  #  #     # 
##  ###  ##   ##  #  # ###  #  # #  # ### ### ##  



	ship_secondaries_1 = {
		category = ship_secondaries
		sfx = sfx_ui_sd_module_turret

		
		add_stats = {
			lg_attack = 3
			build_cost_ic = 180
		}
		multiply_stats = {
			naval_speed = -0.01
		}			
		add_average_stats = {
			lg_armor_piercing = 5.5
		}
		
		can_convert_from = {
			module_category = ship_secondaries
			convert_cost_ic = 100
		}
		critical_parts = { damaged_secondaries }
	}

	ship_secondaries_2 = {
		category = ship_secondaries
		parent = ship_secondaries_1
		sfx = sfx_ui_sd_module_turret

		add_stats = {
			lg_attack = 4
			build_cost_ic = 240
		}
		multiply_stats = {
			naval_speed = -0.01
		}			
		add_average_stats = {
			lg_armor_piercing = 7
		}
		
		can_convert_from = {
			module_category = ship_secondaries
			convert_cost_ic = 120
		}
		critical_parts = { damaged_secondaries }
	}
	dp_ship_secondaries = {
		category = ship_secondaries
		parent = ship_secondaries_2
		gfx = ship_secondaries_3
		sfx = sfx_ui_sd_module_turret
		add_stats = {
			lg_attack = 4.5
			anti_air_attack = 0.5
			build_cost_ic = 290
		}
		
		add_average_stats = {
			lg_armor_piercing = 8
		}
		multiply_stats = {
			naval_speed = -0.01
		}		
		can_convert_from = {
			module_category = ship_secondaries
			convert_cost_ic = 150
		}
		critical_parts = { damaged_secondaries }
	}


 ##  #  # ### ###      ##  ### ###  
#  # ## #  #   #      #  #  #  #  # 
#### # ##  #   #      ####  #  ###  
#  # #  #  #   #      #  #  #  #  # 
#  # #  #  #  ###     #  # ### #  # 



	ship_anti_air_1 = {
		category = ship_anti_air
		sfx = sfx_ui_sd_module_turret
		add_equipment_type = anti_air
		
		add_stats = {
			anti_air_attack = 1.5
			build_cost_ic = 90
		}
		
		multiply_stats = {
			build_cost_ic = 0.025
			naval_speed = -0.005
			anti_air_attack = 0.1
		}

		can_convert_from = {
			module_category = ship_anti_air
			convert_cost_ic = 60
		}
	}

	ship_anti_air_2 = {
		category = ship_anti_air
		parent = ship_anti_air_1
		sfx = sfx_ui_sd_module_turret
		add_equipment_type = anti_air
		
		add_stats = {
			anti_air_attack = 2.5
			build_cost_ic = 120
		}
		
		multiply_stats = {
			naval_speed = -0.005
			build_cost_ic = 0.025
			anti_air_attack = 0.1
		}

		can_convert_from = {
			module_category = ship_anti_air
			convert_cost_ic = 90
		}

		can_convert_from = {
			module = ship_anti_air_1
			convert_cost_ic = 60
		}
	}
	ship_anti_air_3 = {
		category = ship_anti_air
		parent = ship_anti_air_2
		sfx = sfx_ui_sd_module_turret
		add_equipment_type = anti_air
		add_stats = {
			anti_air_attack = 4
			build_cost_ic = 150
		}
		
		multiply_stats = {
			naval_speed = -0.005
			build_cost_ic = 0.025
			anti_air_attack = 0.125
		}

		can_convert_from = {
			module_category = ship_anti_air
			convert_cost_ic = 90
		}

		can_convert_from = {
			module = ship_anti_air_2
			convert_cost_ic = 60
		}
	}
	ship_anti_air_4 = {
		category = ship_anti_air
		parent = ship_anti_air_2
		sfx = sfx_ui_sd_module_turret

		add_equipment_type = anti_air
		add_stats = {
			anti_air_attack = 5.5
			build_cost_ic = 190
		}
		
		multiply_stats = {
			naval_speed = -0.005
			build_cost_ic = 0.025
			anti_air_attack = 0.15
		}

		can_convert_from = {
			module_category = ship_anti_air
			convert_cost_ic = 120
		}

		can_convert_from = {
			module = ship_anti_air_3
			convert_cost_ic = 50
		}
	}


### ### ###  ###      ##   ##  #  # ### ###   ##  #        ## #   #  ## ### ### #   # 
#    #  #  # #       #  # #  # ## #  #  #  # #  # #       #    # #  #    #  #   ## ## 
##   #  ###  ##      #    #  # # ##  #  ###  #  # #        #    #    #   #  ##  # # # 
#    #  #  # #       #  # #  # #  #  #  #  # #  # #         #   #     #  #  #   #   # 
#   ### #  # ###      ##   ##  #  #  #  #  #  ##  ###     ##    #   ##   #  ### #   # 



	ship_fire_control_system_0 = {
		category = ship_fire_control_system
		gfx = ship_fire_control_system
		sfx = sfx_ui_sd_module_sonar

		add_stats = {
			build_cost_ic = 60
		}
		
		multiply_stats = {
			lg_attack = 0.05
			hg_attack = 0.05
		}
	}

	ship_fire_control_system_1 = {
		category = ship_fire_control_system
	
		sfx = sfx_ui_sd_module_sonar

		add_stats = {
			build_cost_ic = 90
		}
		
		multiply_stats = {
			lg_attack = 0.1
			hg_attack = 0.1
			anti_air_attack = 0.1
			reliability = -0.05
		}

		can_convert_from = {
			module = ship_fire_control_system_0
			convert_cost_ic = 40
		}
	}
	ship_fire_control_system_2 = {
		category = ship_fire_control_system
		sfx = sfx_ui_sd_module_sonar

		
		add_stats = {
			build_cost_ic = 120
		}
		
		multiply_stats = {
			lg_attack = 0.15
			hg_attack = 0.15
			anti_air_attack = 0.15
			reliability = -0.075
		}
		can_convert_from = {
			module = ship_fire_control_system_1
			convert_cost_ic = 60
		}
		can_convert_from = {
			module_category = ship_fire_control_system
			convert_cost_ic = 100
		}
	}
	ship_fire_control_system_3 = {
		category = ship_fire_control_system
		sfx = sfx_ui_sd_module_sonar

		
		add_stats = {
			build_cost_ic = 180
		}
		
		multiply_stats = {
			lg_attack = 0.2
			hg_attack = 0.2
			anti_air_attack = 0.2
			reliability = -0.1
		}
		can_convert_from = {
			module = ship_fire_control_system_2
			convert_cost_ic = 75
		}
		can_convert_from = {
			module_category = ship_fire_control_system
			convert_cost_ic = 100
		}
	}


###   ##  ###   ##  ###  
#  # #  # #  # #  # #  # 
###  #### #  # #### ###  
#  # #  # #  # #  # #  # 
#  # #  # ###  #  # #  # 



	ship_radar_1 = {
		category = ship_radar
		sfx = sfx_ui_sd_module_sonar
		
		add_stats = {
			build_cost_ic = 80
			surface_detection = 5
		}
	}
	ship_radar_2 = {
		category = ship_radar
		sfx = sfx_ui_sd_module_sonar
		
		add_stats = {
			build_cost_ic = 110
			surface_detection = 7
			sub_detection = 2
		}
		
		can_convert_from = {
			module = ship_radar_1
			convert_cost_ic = 30
		}
	}
	ship_radar_3 = {
		category = ship_radar
		sfx = sfx_ui_sd_module_sonar
		
		multiply_stats = {
			lg_attack = 0.05
			hg_attack = 0.05
			anti_air_attack = 0.05
		}
		add_stats = {
			
			surface_detection = 12
			sub_detection = 5
			build_cost_ic = 140
		}
		can_convert_from = {
			module = ship_radar_2
			convert_cost_ic = 30
		}
		can_convert_from = {
			module_category = ship_radar
			convert_cost_ic = 60
		}
	}
	ship_radar_4 = {
		category = ship_radar
		sfx = sfx_ui_sd_module_sonar

		multiply_stats = {
			lg_attack = 0.1
			hg_attack = 0.1
			anti_air_attack = 0.1
		}
		add_stats = {
			
			build_cost_ic = 170
			surface_detection = 18
			sub_detection = 10
		}
		can_convert_from = {
			module = ship_radar_3
			convert_cost_ic = 30
		}
		can_convert_from = {
			module_category = ship_radar
			convert_cost_ic = 90
		}
	}


### #  #  ##  ### #  # ### 
#   ## # #     #  ## # #   
##  # ## # ##  #  # ## ##  
#   #  # #  #  #  #  # #   
### #  #  ##  ### #  # ### 



	light_ship_engine_1 = {
		category = light_ship_engine
		sfx = sfx_ui_sd_module_engine

		
		add_stats = {
			naval_speed = 0
			fuel_consumption = 7
			build_cost_ic = 90
		}
		
		multiply_stats = {
			naval_speed = 0.0
			reliability = -0.2
		}
		
		can_convert_from = {
			module_category = light_ship_engine
			convert_cost_ic = 250
		}

	}

	light_ship_engine_2 = {
		category = light_ship_engine
		parent = light_ship_engine_1
		sfx = sfx_ui_sd_module_engine

		
		add_stats = {
			naval_speed = 0
			fuel_consumption = 8
			build_cost_ic = 120
		}
		
		multiply_stats = {
			naval_speed = 0.06
			reliability = -0.2
		}
		
		can_convert_from = {
			module_category = light_ship_engine
			convert_cost_ic = 250
		}
		
		can_convert_from = {
			module = light_ship_engine_1
			convert_cost_ic = 230
		}
	}

	light_ship_engine_3 = {
		category = light_ship_engine
		parent = light_ship_engine_2
		sfx = sfx_ui_sd_module_engine

		
		add_stats = {
			naval_speed = 0
			fuel_consumption = 10
			build_cost_ic = 150
		}
		
		multiply_stats = {
			naval_speed = 0.12
			reliability = -0.2
		}
		
		can_convert_from = {
			module_category = light_ship_engine
			convert_cost_ic = 250
		}
		
		can_convert_from = {
			module = light_ship_engine_2
			convert_cost_ic = 230
		}
	}
	light_ship_engine_4 = {
		category = light_ship_engine
		parent = light_ship_engine_3
		sfx = sfx_ui_sd_module_engine

		
		add_stats = {
			naval_speed = 0
			fuel_consumption = 10
			build_cost_ic = 170
		}
		
		multiply_stats = {
			naval_speed = 0.18
			reliability = -0.2
		}
		
		can_convert_from = {
			module_category = light_ship_engine
			convert_cost_ic = 250
		}
		
		can_convert_from = {
			module = light_ship_engine_3
			convert_cost_ic = 230
		}
	}
	sub_ship_engine_1 = {
		category = sub_ship_engine
		sfx = sfx_ui_sd_module_engine
		
		
		add_stats = {
			naval_speed = 0
			fuel_consumption = 7
			build_cost_ic = 90
		}
		
		multiply_stats = {
			naval_speed = 0.0
			reliability = -0.2

		}

		
		can_convert_from = {
			module_category = sub_ship_engine
			convert_cost_ic = 250
		}
	}

	sub_ship_engine_2 = {
		category = sub_ship_engine
		parent = sub_ship_engine_1
		sfx = sfx_ui_sd_module_engine

		
		add_stats = {
			naval_speed = 0
			fuel_consumption = 8
			build_cost_ic = 120
		}
		
		multiply_stats = {
			naval_speed = 0.06
			reliability = -0.2
			sub_visibility = -0.05
		}
		
		can_convert_from = {
			module_category = sub_ship_engine
			convert_cost_ic = 250
		}
		
		can_convert_from = {
			module = sub_ship_engine_1
			convert_cost_ic = 230
		}
	}

	sub_ship_engine_3 = {
		category = sub_ship_engine
		parent = sub_ship_engine_2
		sfx = sfx_ui_sd_module_engine

		
		add_stats = {
			naval_speed = 0
			fuel_consumption = 10
			build_cost_ic = 150
		}
		
		multiply_stats = {
			naval_speed = 0.12
			reliability = -0.2
			sub_visibility = -0.1
		}
		
		can_convert_from = {
			module_category = sub_ship_engine
			convert_cost_ic = 250
		}
		
		can_convert_from = {
			module = sub_ship_engine_2
			convert_cost_ic = 230
		}
	}
	sub_ship_engine_4 = {
		category = sub_ship_engine
		parent = sub_ship_engine_3
		sfx = sfx_ui_sd_module_engine

		
		add_stats = {
			naval_speed = 0
			fuel_consumption = 10
			build_cost_ic = 170
		}
		
		multiply_stats = {
			naval_speed = 0.18
			reliability = -0.2
			sub_visibility = -0.15
		}
		
		can_convert_from = {
			module_category = sub_ship_engine
			convert_cost_ic = 250
		}
		
		can_convert_from = {
			module = sub_ship_engine_3
			convert_cost_ic = 230
		}
	}
	cruiser_ship_engine_1 = {
		category = cruiser_ship_engine
		sfx = sfx_ui_sd_module_engine

		
		add_stats = {
			naval_speed = 0
			fuel_consumption = 12
			build_cost_ic = 400
		}
		
		multiply_stats = {
			naval_speed = 0.0
			reliability = -0.2
		}
		
		can_convert_from = {
			module_category = cruiser_ship_engine
			convert_cost_ic = 2500
		}
	}

	cruiser_ship_engine_2 = {
		category = cruiser_ship_engine
		parent = cruiser_ship_engine_1
		sfx = sfx_ui_sd_module_engine

		
		add_stats = {
			naval_speed = 0
			fuel_consumption = 16
			build_cost_ic = 480
		}
		
		multiply_stats = {
			naval_speed = 0.06
			reliability = -0.2
		}
		
		can_convert_from = {
			module_category = cruiser_ship_engine
			convert_cost_ic = 2500
		}
		
		can_convert_from = {
			module = cruiser_ship_engine_1
			convert_cost_ic = 2300
		}
	}

	cruiser_ship_engine_3 = {
		category = cruiser_ship_engine
		parent = cruiser_ship_engine_2
		sfx = sfx_ui_sd_module_engine

		
		add_stats = {
			naval_speed = 0
			fuel_consumption = 20
			build_cost_ic = 550
		}
		
		multiply_stats = {
			naval_speed = 0.12
			reliability = -0.2
		}
		
		can_convert_from = {
			module_category = cruiser_ship_engine
			convert_cost_ic = 2500
		}
		
		can_convert_from = {
			module = cruiser_ship_engine_2
			convert_cost_ic = 2300
		}
	}
	cruiser_ship_engine_4 = {
		category = cruiser_ship_engine
		parent = cruiser_ship_engine_3
		sfx = sfx_ui_sd_module_engine

		
		add_stats = {
			naval_speed = 0
			fuel_consumption = 24
			build_cost_ic = 670
		}
		
		multiply_stats = {
			naval_speed = 0.18
			reliability = -0.2
		}
		
		can_convert_from = {
			module_category = cruiser_ship_engine
			convert_cost_ic = 2500
		}
		
		can_convert_from = {
			module = cruiser_ship_engine_3
			convert_cost_ic = 2300
		}
	}
	heavy_ship_engine_1 = {
		category = heavy_ship_engine
		sfx = sfx_ui_sd_module_engine

		
		add_stats = {
			naval_speed = 0
			fuel_consumption = 20
			build_cost_ic = 1800
		}
		
		multiply_stats = {
			naval_speed = 0.0
			reliability = -0.2
		}
		
		can_convert_from = {
			module_category = heavy_ship_engine
			convert_cost_ic = 4800
		}
	}

	heavy_ship_engine_2 = {
		category = heavy_ship_engine
		parent = heavy_ship_engine_1
		sfx = sfx_ui_sd_module_engine

		
		add_stats = {
			naval_speed = 0
			fuel_consumption = 25
			build_cost_ic = 2200
		}
		
		multiply_stats = {
			naval_speed = 0.06
			reliability = -0.2
		}
		
		can_convert_from = {
			module_category = heavy_ship_engine
			convert_cost_ic = 5000
		}
		
		can_convert_from = {
			module = heavy_ship_engine_1
			convert_cost_ic = 4800
		}
	}

	heavy_ship_engine_3 = {
		category = heavy_ship_engine
		parent = heavy_ship_engine_2
		sfx = sfx_ui_sd_module_engine

		
		add_stats = {
			naval_speed = 0
			fuel_consumption = 30
			build_cost_ic = 2600
		}
		
		multiply_stats = {
			naval_speed = 0.12
			reliability = -0.2
			
		}
		
		can_convert_from = {
			module_category = heavy_ship_engine
			convert_cost_ic = 5000
		}
		
		can_convert_from = {
			module = heavy_ship_engine_2
			convert_cost_ic = 4800
		}
	}
	heavy_ship_engine_4 = {
		category = heavy_ship_engine
		parent = heavy_ship_engine_3
		sfx = sfx_ui_sd_module_engine

		
		add_stats = {
			naval_speed = 0
			fuel_consumption = 35
			build_cost_ic = 3000
		}
		
		multiply_stats = {
			naval_speed = 0.18
			reliability = -0.2
			
		}
		
		can_convert_from = {
			module_category = heavy_ship_engine
			convert_cost_ic = 5000
		}
		
		can_convert_from = {
			module = heavy_ship_engine_3
			convert_cost_ic = 4800
		}
	}
	carrier_ship_engine_1 = {
		category = carrier_ship_engine
		sfx = sfx_ui_sd_module_engine
		
		
		add_stats = {
			naval_speed = 0
			fuel_consumption = 12
			build_cost_ic = 400
		}
		
		multiply_stats = {
			naval_speed = 0.0
			reliability = -0.2
		}
		
		can_convert_from = {
			module_category = carrier_ship_engine
			convert_cost_ic = 2500
		}
	}

	carrier_ship_engine_2 = {
		category = carrier_ship_engine
		parent = carrier_ship_engine_1
		sfx = sfx_ui_sd_module_engine

		
		add_stats = {
			naval_speed = 0
			fuel_consumption = 16
			build_cost_ic = 480
		}
		
		multiply_stats = {
			naval_speed = 0.06
			reliability = -0.2
		}
		
		can_convert_from = {
			module_category = carrier_ship_engine
			convert_cost_ic = 2500
		}
		
		can_convert_from = {
			module = carrier_ship_engine_1
			convert_cost_ic = 2300
		}
	}

	carrier_ship_engine_3 = {
		category = carrier_ship_engine
		parent = carrier_ship_engine_2
		sfx = sfx_ui_sd_module_engine
		
		
		add_stats = {
			naval_speed = 0
			fuel_consumption = 20
			build_cost_ic = 550
		}
		
		multiply_stats = {
			naval_speed = 0.12
			reliability = -0.2
		}
		
		can_convert_from = {
			module_category = carrier_ship_engine
			convert_cost_ic = 2500
		}
		
		can_convert_from = {
			module = carrier_ship_engine_2
			convert_cost_ic = 2300
		}
	}
	carrier_ship_engine_4 = {
		category = carrier_ship_engine
		parent = carrier_ship_engine_3
		sfx = sfx_ui_sd_module_engine

		
		add_stats = {
			naval_speed = 0
			fuel_consumption = 24
			build_cost_ic = 670
		}
		
		multiply_stats = {
			naval_speed = 0.18
			reliability = -0.2
		}
		
		can_convert_from = {
			module_category = carrier_ship_engine
			convert_cost_ic = 2500
		}
		
		can_convert_from = {
			module = carrier_ship_engine_3
			convert_cost_ic = 2300
		}
	}

	


###  ##  ###  ###  ### ###   ##  
 #  #  # #  # #  # #   #  # #  # 
 #  #  # ###  ###  ##  #  # #  # 
 #  #  # #  # #    #   #  # #  # 
 #   ##  #  # #    ### ###   ##  



	ship_torpedo_1 = {
		category = ship_torpedo
		sfx = sfx_ui_sd_module_turret

		
		add_stats = {
			torpedo_attack = 18
			build_cost_ic = 90
		}
		multiply_stats = {
			naval_speed = -0.005
		}		
		build_cost_resources = {
		}
		critical_parts = { damaged_torpedoes }
	}

	ship_torpedo_2 = {
		category = ship_torpedo
		parent = ship_torpedo_1
		
		sfx = sfx_ui_sd_module_turret

		add_stats = {
			torpedo_attack = 27
			build_cost_ic = 120
		}
		multiply_stats = {
			naval_speed = -0.005
		}		
		build_cost_resources = {
		}
		 
		dismantle_cost_ic = 60

		can_convert_from = {
			module_category = ship_torpedo
			convert_cost_ic = 60
		}
		critical_parts = { damaged_torpedoes }
	}

	ship_torpedo_3 = {
		category = ship_torpedo
		parent = ship_torpedo_2
		
		sfx = sfx_ui_sd_module_turret

		add_stats = {
			torpedo_attack = 36
			build_cost_ic = 150
		}
		multiply_stats = {
			naval_speed = -0.005
		}		
		dismantle_cost_ic = 60

		can_convert_from = {
			module_category = ship_torpedo
			convert_cost_ic = 60
		}
		critical_parts = { damaged_torpedoes }
	}

	ship_torpedo_4 = {
		category = ship_torpedo
		parent = ship_torpedo_3
		
		sfx = sfx_ui_sd_module_turret

		add_stats = {
			torpedo_attack = 45
			build_cost_ic = 180
		}
		multiply_stats = {
			naval_speed = -0.005
		}		
		dismantle_cost_ic = 60

		can_convert_from = {
			module_category = ship_torpedo
			convert_cost_ic = 60
		}
		critical_parts = { damaged_torpedoes }
	}

	ship_torpedo_sub_1 = {
		category = ship_torpedo_sub
		sfx = sfx_ui_sd_module_turret

		
		add_stats = {
			torpedo_attack = 14
			build_cost_ic = 80
		}
		multiply_stats = {
			naval_speed = -0.005
		}		
		build_cost_resources = {
		}
		critical_parts = { damaged_torpedoes }
	}

	ship_torpedo_sub_2 = {
		category = ship_torpedo_sub
		parent = ship_torpedo_sub_1
		
		sfx = sfx_ui_sd_module_turret

		add_stats = {
			torpedo_attack = 18
			build_cost_ic = 100
		}
		multiply_stats = {
			naval_speed = -0.005
		}		
		build_cost_resources = {
		}
		can_convert_from = {
			module_category = ship_torpedo_sub
			convert_cost_ic = 60
		}
		critical_parts = { damaged_torpedoes }
	}

	ship_torpedo_sub_3 = {
		category = ship_torpedo_sub
		parent = ship_torpedo_sub_2
		
		sfx = sfx_ui_sd_module_turret

		add_stats = {
			torpedo_attack = 23
			build_cost_ic = 120
		}
		multiply_stats = {
			naval_speed = -0.005
		}		
		can_convert_from = {
			module_category = ship_torpedo_sub
			convert_cost_ic = 60
		}
		critical_parts = { damaged_torpedoes }
	}

	ship_torpedo_sub_4 = {
		category = ship_torpedo_sub
		parent = ship_torpedo_sub_3
		
		sfx = sfx_ui_sd_module_turret

		add_stats = {
			torpedo_attack = 30
			build_cost_ic = 140
		}
		multiply_stats = {
			naval_speed = -0.005
		}		
		can_convert_from = {
			module_category = ship_torpedo_sub
			convert_cost_ic = 60
		}
		critical_parts = { damaged_torpedoes }
	}

	ship_depth_charge_1 = {
		category = ship_depth_charge
		sfx = sfx_ui_sd_module_turret
		
		
		add_stats = {
			sub_attack = 4
			build_cost_ic = 30
		}
		multiply_stats = {
			naval_speed = -0.005
		}
		can_convert_from = {
			module_category = ship_depth_charge
			convert_cost_ic = 30
		}
	}

	ship_depth_charge_2 = {
		category = ship_depth_charge
		sfx = sfx_ui_sd_module_turret

		
		add_stats = {
			sub_attack = 8
			build_cost_ic = 45
		}
		multiply_stats = {
			naval_speed = -0.005
		}
		can_convert_from = {
			module_category = ship_depth_charge
			convert_cost_ic = 45
		}
	}

	ship_depth_charge_3 = {
		category = ship_depth_charge
		sfx = sfx_ui_sd_module_turret

		
		add_stats = {
			sub_attack = 12
			build_cost_ic = 60
		}
		multiply_stats = {
			naval_speed = -0.005
		}
		can_convert_from = {
			module_category = ship_depth_charge
			convert_cost_ic = 60
		}
	}

	ship_depth_charge_4 = {
		category = ship_depth_charge
		sfx = sfx_ui_sd_module_turret

		
		add_stats = {
			sub_attack = 18
			build_cost_ic = 75
		}

		can_convert_from = {
			module_category = ship_depth_charge
			convert_cost_ic = 75
		}
	}


 ## #  #  ##  ###  # # ### #   
#   ## # #  # #  # # # #   #   
 #  # ## #  # ###  ##  ##  #   
  # #  # #  # #  # # # #   #   
##  #  #  ##  #  # # # ### ### 



	ship_sub_snorkel_1 = {
		category = ship_sub_snorkel
		gfx = ship_sub_snorkel_1
		
		multiply_stats = {
			sub_visibility = -0.1
		}
		
		add_stats = {
			build_cost_ic = 50
		}
	}
	ship_sub_snorkel_2 = {
		category = ship_sub_snorkel
		gfx = ship_sub_snorkel_2
		
		multiply_stats = {
			sub_visibility = -0.2
		}
		
		add_stats = {
			build_cost_ic = 70
		}

		can_convert_from = {
			module_category = ship_sub_snorkel
			convert_cost_ic = 30
		}
	}

 ##  ### ###   ##  ###   ##  ### ###     #    ##  #  # #  #  ##  #  # ### ###  
#  #  #  #  # #  # #  # #  # #    #      #   #  # #  # ## # #  # #  # #   #  # 
####  #  ###  #    ###  #### ##   #      #   #### #  # # ## #    #### ##  ###  
#  #  #  #  # #  # #  # #  # #    #      #   #  # #  # #  # #  # #  # #   #  # 
#  # ### #  #  ##  #  # #  # #    #      ### #  #  ##  #  #  ##  #  # ### #  # 
	ship_airplane_launcher_1 = {
		category = ship_airplane_launcher
		gfx = ship_airplane_launcher_1
		
		add_stats = {
			surface_detection = 7
			sub_detection = 2.5
			build_cost_ic = 150
		}
		multiply_stats = {
			hg_attack = 0.12
			lg_attack = 0.15
			torpedo_attack = 0.15			
		}
	}
	ship_airplane_launcher_2 = {
		category = ship_airplane_launcher
		gfx = ship_airplane_launcher_2
		
		add_stats = {
			surface_detection = 10
			sub_detection = 3.5
			build_cost_ic = 170
		}
		multiply_stats = {
			hg_attack = 0.18
			lg_attack = 0.22
			torpedo_attack = 0.22			
		}		
		can_convert_from = {
			module_category = ship_airplane_launcher
			convert_cost_ic = 80
		}
	}

###  ###  ##  # #      ## ###   ##   ##  ### 
#  # #   #  # # #     #   #  # #  # #  # #   
#  # ##  #    ##       #  ###  #### #    ##  
#  # #   #  # # #       # #    #  # #  # #   
###  ###  ##  # #     ##  #    #  #  ##  ### 
	ship_deck_space = {
		category = ship_deck_space
		gfx = ship_deck_space

		add_equipment_type = capital_ship
		add_stats = {
			carrier_size = 5
			build_cost_ic = 800
		}
		manpower = 500 #outside the add_stats section for code reasons
		multiply_stats = {
			naval_speed = -0.02
		}
		build_cost_resources = {
		}
		dismantle_cost_ic = 300
	}

### #  # ### #       ###  ##  #  # # #  ## 
#   #  # #   #        #  #  # ## # # # #   
##  #  # ##  #        #  #### # ## ##   #  
#   #  # #   #        #  #  # #  # # #   # 
#    ##  ### ###      #  #  # #  # # # ##  

	ship_extra_fuel_tank = {
		category = ship_extra_fuel_tank
		
		
		add_stats = {
			naval_range = 1000
		}
		multiply_stats = {
			build_cost_ic = 0.05
		}
		dismantle_cost_ic = 700
	}
 ##  ##  #  #  ##  ###  
#   #  # ## # #  # #  # 
 #  #  # # ## #### ###  
  # #  # #  # #  # #  # 
##   ##  #  # #  # #  # 


	ship_sonar_1 = {
		category = ship_sonar
		gfx = ship_sonar_1
		sfx = sfx_ui_sd_module_sonar
		
		add_stats = {
			sub_detection = 4
			build_cost_ic = 40
		}
	}

	ship_sonar_2 = {
		category = ship_sonar
		gfx = ship_sonar_2
		sfx = sfx_ui_sd_module_sonar
		
		add_stats = {
			sub_detection = 7.0
			build_cost_ic = 60
		}
		can_convert_from = {
			module_category = ship_sonar
			convert_cost_ic = 25
		}
	}
 ##  ###  #   #  ##  ###       ##  ##  #  # ### #   # ###  ## 
#  # #  # ## ## #  # #  #     #   #  # #  # #   ## ## #   #   
#### ###  # # # #  # ###       #  #    #### ##  # # # ##   #  
#  # #  # #   # #  # #  #       # #  # #  # #   #   # #     # 
#  # #  # #   #  ##  #  #     ##   ##  #  # ### #   # ### ##  

	ship_armor_bb_1 = {
		category = ship_heavy_armor
		gfx = ship_armor_thick_1
		
		multiply_stats = {
			build_cost_ic = 0.1
			naval_speed = 0.0
			max_strength = 0.2
		}
		build_cost_resources = {
		}
		add_stats = {
			armor_value = 75
			surface_visibility = 22
		}
		dismantle_cost_ic = 5500
		
	}
	ship_armor_bc_1 = {
		category = ship_heavy_armor
		gfx = ship_armor_1
		
		multiply_stats = {
			build_cost_ic = -0.15
			naval_speed = 0.10
			max_strength = 0.05
			hg_attack = -0.35
			hg_armor_piercing = -0.40	
		}

		add_stats = {
			armor_value = 60
			surface_visibility = 20
		}
		dismantle_cost_ic = 4500
		
	}
	ship_armor_bb_2 = {
		category = ship_heavy_armor
		gfx = ship_armor_thick_2
		
		multiply_stats = {
			build_cost_ic = 0.1
			naval_speed = 0.0
			max_strength = 0.25
		}
		build_cost_resources = {
		}
		add_stats = {
			armor_value = 105
			surface_visibility = 22
		}
		dismantle_cost_ic = 6000
		
	}
	ship_armor_bc_2 = {
		category = ship_heavy_armor
		gfx = ship_armor_2
		
		multiply_stats = {
			build_cost_ic = -0.15
			naval_speed = 0.10
			max_strength = 0.1
			hg_attack = -0.35
			hg_armor_piercing = -0.40			
		}
		build_cost_resources = {
		}
		add_stats = {
			armor_value = 82.5
			surface_visibility = 20
		}
		dismantle_cost_ic = 5500
	}
	ship_armor_bb_3 = {
		category = ship_heavy_armor
		gfx = ship_armor_thick_3
		
		multiply_stats = {
			build_cost_ic = 0.1
			naval_speed = 0.0
			max_strength = 0.3
		}
		build_cost_resources = {
		}
		add_stats = {
			armor_value = 150
			surface_visibility = 22
		}
		dismantle_cost_ic = 7500
		
	}
	ship_armor_bc_3 = {
		category = ship_heavy_armor
		gfx = ship_armor_3
		
		multiply_stats = {
			build_cost_ic = -0.15
			naval_speed = 0.10
			max_strength = 0.15
			hg_attack = -0.35
			hg_armor_piercing = -0.40			
		}		
		build_cost_resources = {
		}
		add_stats = {
			armor_value = 97.5
			surface_visibility = 20
		}
		dismantle_cost_ic = 6200
		
	}
	ship_armor_shbb = {
		category = ship_super_heavy_armor
		gfx = ship_armor_thick_3
		
		multiply_stats = {
			build_cost_ic = 0.75
			naval_speed = 0.0
			max_strength = 0.1
		}
		build_cost_resources = {
		}
		add_stats = {
			armor_value = 202.5
			surface_visibility = 20
		}
		dismantle_cost_ic = 8200
		
	}
	ship_armor_cruiser_1 = {
		category = ship_cruiser_armor
		gfx = ship_armor_thin_1
		
		multiply_stats = {
			build_cost_ic = 0.05
			naval_speed = 0.0
			max_strength = 0.05			
		}
		dismantle_cost_ic = 2500
		
		add_stats = {
			armor_value = 6
		}
	}
	ship_armor_cruiser_2 = {
		category = ship_cruiser_armor
		gfx = ship_armor_thin_2
		
		multiply_stats = {
			build_cost_ic = 0.1
			naval_speed = 0.0
			max_strength = 0.1
		}
		dismantle_cost_ic = 3000
		
		add_stats = {
			armor_value = 8
		}
		build_cost_resources = {
		}
	}
	ship_armor_cruiser_3 = {
		category = ship_cruiser_armor
		gfx = ship_armor_thin_3
		
		multiply_stats = {
			build_cost_ic = 0.15
			naval_speed = 0.0
			max_strength = 0.15
		}
		dismantle_cost_ic = 3500
		
		add_stats = {
			armor_value = 10
		}
		build_cost_resources = {
		}
	}
	ship_armor_cruiser_4 = {
		category = ship_cruiser_armor
		gfx = ship_armor_thin_4
		
		multiply_stats = {
			build_cost_ic = 0.2
			naval_speed = 0.0
			max_strength = 0.2
		}
		dismantle_cost_ic = 4000
		
		add_stats = {
			armor_value = 12
		}
		build_cost_resources = {
		}
	}
	ship_armor_carrier_deck = {
		category = ship_carrier_armor
		gfx = ship_cruiser_armor
		
		multiply_stats = {
			build_cost_ic = 0.05
			max_strength = 0.05			
		}
		build_cost_resources = {
		}
		multiply_stats = {
			naval_speed = 0.0
		}
		add_stats = {
			armor_value = 5
			max_strength = 25
		}
		dismantle_cost_ic = 2500
	}
}
