
state={
	id=155
	name="STATE_155" # Transdanubia
	manpower = 2197605
	
	state_category = city
	resources={
		oil = 1
	}
	history={
		owner = HUN
		victory_points = {
			11610 5 
		}
		buildings = {
			infrastructure = 4
			industrial_complex = 3
			arms_factory = 1
			air_base = 3
			fuel_silo = 1
		}
		add_core_of = HUN
	}

	provinces={
		682 686 701 3670 3680 6685 9676 11610
	}
}
