
state={
	id=173
	name="STATE_173" # Granada
	manpower = 1662292
	
	state_category = city
	
	resources={
		steel=8 # was: 12
	}

	history={
		owner = SPR
		victory_points = {
			9979 10
		}
		buildings = {
			infrastructure = 6
			industrial_complex = 1
			anti_air_building = 5
			fuel_silo = 1			
		}

		add_core_of = SPR
	}

	provinces={
		9979
	}
}
