
state={
	id=200
	name="STATE_200" # Zaporozhe
	manpower = 794082
	state_category = town

	history={
		owner = SOV
		victory_points = {
			11405 1
		}
		buildings = {
			industrial_complex = 1
			infrastructure = 5
			air_base = 3
		}
		add_core_of = SOV
		1939.1.1 = {
			buildings = {
				industrial_complex = 1
			}
		}
	}

	provinces={
		429 588 3399 3767 6596 9571 9729 11405 11700 
	}
}
