
state={
	id=226
	name="STATE_226" # Dnipropertovsk
	manpower = 1391047
	
	state_category = town
	
	resources={
		oil=6
	}

	history={
		owner = SOV
		victory_points = {
			11437 10 
		}
		victory_points = {
			11561 1
		}
		buildings = {
			infrastructure = 5
			industrial_complex = 4
			arms_factory = 2
			air_base = 2
		}
		add_core_of = SOV
	}

	provinces={
		453 472 486 6423 9419 9433 9463 9479 11422 11437 11452 11561 
	}
}
