
state={
	id=256
	name="STATE_256"

	history={
		owner = SOV
		buildings = {
			infrastructure = 4

		}
		victory_points = {
			9259 5
		}
		add_core_of = SOV

	}

	provinces={
		325 3282 3315 6253 6307 6312 6357 6403 9244 9259 9307 9373 11356 
	}
	manpower=1572061
	buildings_max_level_factor=1.000
	state_category=large_town
}
