
state={
	id=275
	name="STATE_275" # Transvaal
	manpower = 3680363
	
	state_category = city
	
	resources={
		steel= 35
		tungsten=40
		chromium=108
	}

	history={
		owner = SAF
		buildings = {
			infrastructure = 4
			industrial_complex = 8
			air_base = 3
		}
		victory_points = {
			10400 10
		}
		add_core_of = SAF
	}

	provinces={
		1688 2171 2213 5106 5217 5231 10400 10566 10668 12064 12648 
	}
}
