state={
id=277
name="STATE_277"
manpower = 1
state_category = wasteland
history={
		owner = ENG
		buildings = {
			infrastructure = 10
			12406 = {
				naval_base = 14
				coastal_bunker = 2
			}
		}
		victory_points = {
			12406 1
		}
}
provinces={
	12406
}
}
