state=
{
	id=333
	name="STATE_333"
	manpower = 889800
	resources={
		rubber=50
		oil=28
	}
	
	state_category = rural

	history= {
		owner = INS
		victory_points = {
			7371 5
		}
		buildings = {
			infrastructure = 1
			1208 = {
				naval_base = 1
			}
			7371 = {
				naval_base = 2
			}
			1306 = { 
				naval_base = 2 
			}
		}
	}

	provinces={
		1208 1306 1335 4282 4338 4396 7371 10199 10285 12171 12186 12228 12283 12905 
	}
}
