
state={
	id=375
	name="STATE_375"
	manpower = 5824712
	
	
	state_category = megalopolis
	
	resources={
		oil=180
		aluminium=156
	}


	history={
		owner = USA
		buildings = {
			infrastructure = 6
			industrial_complex = 10
			air_base = 3
			10337 = {
				naval_base = 3
			}
			6785 = {
				naval_base = 1
			}
		}
		add_core_of = USA
		victory_points = {
			10337 10
		}
		victory_points = {
			3960 10 
		}
		victory_points = {
			12782 1 
		}

	}

	provinces={
		805 1500 1915 1927 1954 1998 2019 2042 2055 2082 3875 3960 3972 4577 4884 5001 5022 5038 5061 6785 6798 6968 6987 7628 7836 8064 9773 9829 10337 10504 10778 10861 12341 12369 12410 12486 12728 12782 12893
	}
}
