state= {
	id=380
	name="STATE_380"
	manpower = 507846
	
	state_category = town
	
	resources={
		tungsten=77
	}

	history={
		owner = USA
		buildings = {
			infrastructure = 4
			industrial_complex = 4
			air_base = 1
		}
		add_core_of = USA
		victory_points = {
			4865 1 
		}
	}
	provinces={
		1663 1740 1756 4668 4742 4865 7764 7818 10582 10651 10662 12573 12699 13153
	}
}
