
state={
	id=383
	name="STATE_383"
	manpower = 1880998
	resources={
		oil=42
	}
	
	state_category = large_city

	history={
		owner = USA
		buildings = {
			infrastructure = 4
			industrial_complex = 5
			air_base = 1
		}
		add_core_of = USA
	}

	provinces={
		1352 1753 4586 4740 4757 4811 4814 12024
	}
	
}
