
state={
	id=402
	name="STATE_402"
	resources={
		chromium=15.000
	}

	history={
		owner = SOV
		buildings = {
			infrastructure = 3
			air_base = 2
		}
		add_core_of = SOV

	}

	provinces={
		1220 1247 1314 4227 4254 4303 4374 7243 10131 10264 12235 12254
	}
	manpower=282245
	buildings_max_level_factor=1.000
	state_category=rural
}
