
state={
	id=449
	name="STATE_449"

	history={
		owner = ITA
		buildings = {
			infrastructure = 5

		}
		victory_points = {
			10046 1
		}	
	}

	provinces={
		1041 1118 4047 4176 7136 7194 10046 10117 12088 13073 13305
	}
	manpower=40431
	buildings_max_level_factor=1.000
	state_category=enclave
}
