
state={
	id=526
	name="STATE_526"
	manpower = 578000
	
	state_category = small_island
	resources={
		oil=2
		aluminium=4
	}
	resources={
		chromium=8
	}
	history={
		owner = JAP
		add_core_of = JAP
		buildings = {
			infrastructure = 1
			air_base = 3
			11932 = {
				naval_base = 3

			}

		}
		victory_points = {
			11932 20 
		}

	}

	provinces={
		1123 10124 11932 
	}
}
