
state={
	id=545
	name="STATE_545"
	resources={
		tungsten=16.000
	}

	history={
		owner = ENG
		buildings = {
			infrastructure = 2

		}
		victory_points = {
			10929 1 
		}

	}

	provinces={
		1874 2151 2216 4851 7842 10929 
	}
	manpower=4155400
	buildings_max_level_factor=1.000
	state_category=rural
}
