
state={
	id=560
	name="STATE_560" # Nikolayevsk
	manpower = 97663
	
	state_category = rural
	resources={
		steel=18 # was: 24
	}

	history={
		owner = SOV
		buildings = {
			infrastructure = 3
		}
		add_core_of = SOV
	}

	provinces={
		1724 1772 1807 1842 3664 4290 4841 4844 7871 10590 12559 12569
	}
}
