
state={
	id=576
	name="STATE_576" # Yeniseisk
	manpower = 117195
	
	state_category = pastoral

	history={
		owner = SOV
		buildings = {
			infrastructure = 1
		}
		add_core_of = SOV
	}

	provinces={
		1679 1697 1741 1780 1837 4687 4743 4785 4831 4842 7701 7707 7750 7805 7863 10544 10576 10631 12555 12615 12655
	}
}
