
state={
	id=633
	name="STATE_633"
	manpower=32517
	
	state_category = small_island
	resources={
		oil=1
		aluminium=1
		rubber=5 
	}
	history={
		owner = JAP
		buildings = {
			infrastructure = 2
			air_base = 1
			13039 = {
				naval_base = 1

			}
			13040 = {
				naval_base = 1

			}
			13041 = {
				naval_base = 3

			}
			13042 = {
				naval_base = 1

			}
			13046 = {
				naval_base = 1

			}
			1002 = {
				naval_base = 1
			}
			13045 = {
				naval_base = 1
			}
		}
		victory_points = {
			13041 15 
		}
		victory_points = {
			13046 10 
		}

	}

	provinces={
		1002 13039 13040 13041 13042 13043 13044 13045 13046 
	}
}
