
state={
	id=681
	name="STATE_681" # Cape
	manpower = 1637178

	state_category = town

	history={
		owner = SAF
		buildings = {
			infrastructure = 5
			industrial_complex = 2
			air_base = 1
			fuel_silo = 1
			4696 = {
				naval_base = 2
			}
			12589 = {
				naval_base = 14
			}
		}
		victory_points = {
			12589 10 
		}
		victory_points = {
			4696 1 
		}
		add_core_of = SAF
	}

	provinces={
		1509 4528 4696 4822 5203 10415 10442 10697 12419 12547 12589 12692 
	}
}
