state={
	id=683
	name="STATE_683"
	
	state_category = wasteland
	impassable = yes

	resources={
		aluminium=7 # was: 8.000
	}

	history={
		owner = CAN
		buildings = {
			infrastructure = 1

		}
		add_core_of = CAN

	}

	provinces={
		10585
	}
	manpower=46135
	buildings_max_level_factor=1.000
}
