state={
	id=692
	name="STATE_692"
	manpower=76485
	state_category = small_island

	history={
		owner = ENG
		buildings = {
			infrastructure = 4
			11350 = {
				naval_base = 1
			}
		}
	}
	
	provinces={
		11350 
	}
}
