state={
	id=698
	name="STATE_698"
	manpower = 212012
	
	state_category = small_island
	
	history={
		owner = ENG
		buildings = {
			infrastructure = 3
			1751 = {
				naval_base = 3
			}
		}
		add_core_of = POR
	}
	
	provinces={
		1751 
	}
}