state={
	id=723
	name="STATE_723"
	manpower = 547198
	resources={
		tungsten=10 # was: 6
	}

	state_category = rural


	history={
		owner = NZL
		buildings = {
			infrastructure = 5
			dockyard = 2			
			air_base = 5
			2197 = {
				naval_base = 2
			}
		}
		victory_points = {
			2197 1 
		}
		victory_points = {
			2211 1 
		}
		add_core_of = NZL
	}
	provinces={
		2197 2203 2211 4819 5195 7839 8204 8212 8232 8241 10650 12632 12966 12974 12980 12988 
	}
}
