state={
	id=794
	name="STATE_794"
	provinces={
		1551 1608 1796 4222 4612 7048 12331
	}
	manpower=500000
	state_category = pastoral
	resources={
		oil=10.000
	}
	history={
		owner = JAP
		#owner = MAN
		buildings = {
			infrastructure = 2
			industrial_complex = 1
		}
		#add_core_of = MAN
		#add_core_of = CHI
		#add_core_of = PRC

	}
	buildings_max_level_factor=1.000
}
