
state={
	id=797
	name="STATE_797"
	provinces={
		13034 13035 13036
	}
		history={
		owner = JAP
		buildings = {
			infrastructure = 4
			air_base = 1
			13034 = {
				naval_base = 1

			}
			13035 = {
				naval_base = 1

			}
			13036 = {
				naval_base = 1

			}
		}
	}
	manpower=1
	buildings_max_level_factor=1.000
	state_category=small_island
}
