state={
	id=817
	name="STATE_817"

	history={
		owner = SOV
		buildings = {
			infrastructure = 4
			air_base = 5
		}
		victory_points = {
			11263 5 
		}
		add_core_of = SOV

	}

	provinces={
		282 3361 6372 6383 9050 9270 9280 9305 9381 9390 9402 11149 11255 11263 11286 11354 11387 
	}
	manpower=1
	buildings_max_level_factor=1.000
	state_category=town
}
