
state={
	id=838
	name="STATE_838"

	history={
		owner = GER
		buildings = {
			infrastructure = 7
			industrial_complex = 1
			fuel_silo = 1
		}
		add_core_of = GER


	}

	provinces={
		694 3530 3679 3692 6542 6568 6712 11640 
	}
	manpower=1
	buildings_max_level_factor=1.000
	state_category=large_city
}
