state={
	id=89
	name="STATE_89" # Stanislawow
	manpower = 2180300
	
	state_category = town
	
	history={
		owner = POL
		buildings = {
			infrastructure = 5
			air_base = 6

		}
		add_core_of = POL
		add_core_of = SOV
	}

	provinces={
		3434 3743 6431 6460 6483 9425 11411 11550 
	}
}
