state={
	id=96
	name="STATE_96"
	manpower = 1226000
	
	state_category = rural
	
	history={
		owner = POL
		victory_points = {
			3320 1
		}
		buildings = {
			infrastructure = 5
			industrial_complex = 1
			air_base = 10
			arms_factory = 2
		}
		add_core_of = POL
		add_core_of = SOV
	}

	provinces={
		233 277 358 406 6340 9341 11391 
	}
}
