﻿division_template = {
	name = "Infantry Division"  	# Standard formation for frontline divisions

	regiments = {
		infantry = { x = 0 y = 0 }
		infantry = { x = 0 y = 1 }
		infantry = { x = 0 y = 2 }
		infantry = { x = 0 y = 3 }
		infantry = { x = 0 y = 4 }
		infantry = { x = 1 y = 0 }
		infantry = { x = 1 y = 1 }
		infantry = { x = 1 y = 2 }
		infantry = { x = 1 y = 3 }
		infantry = { x = 1 y = 4 }
		infantry = { x = 2 y = 0 }
		infantry = { x = 2 y = 1 }
		infantry = { x = 2 y = 2 }
		artillery_brigade = { x = 3 y = 0 }
		artillery_brigade = { x = 3 y = 1 }
		artillery_brigade = { x = 3 y = 2 }
		artillery_brigade = { x = 3 y = 3 }
		anti_air_brigade = { x = 4 y = 0 }
		anti_air_brigade = { x = 4 y = 1 }

	}
	support = {
		engineer = { x = 0 y = 0 } 	# (semi-mot) Engineer bn
		recon = { x = 0 y = 1 } 		# Recon bn had 16 L tanks, 10 ACs, 1x mot inf co #Eng and recon removed and they seem rather OP. Could revisit if balance changes
		logistics_company { x = 0 y = 2 } 
		artillery = { x = 0 y = 3 }
	}
}

division_template = {
	name = "Desert Infantry Division"

	regiments = {
		desertinfantry = { x = 0 y = 0 }
		desertinfantry = { x = 0 y = 1 }
		desertinfantry = { x = 0 y = 2 }
		desertinfantry = { x = 0 y = 3 }
		desertinfantry = { x = 0 y = 4 }
		desertinfantry = { x = 1 y = 0 }
		desertinfantry = { x = 1 y = 1 }
		desertinfantry = { x = 1 y = 2 }
		desertinfantry = { x = 1 y = 3 }
		desertinfantry = { x = 1 y = 4 }
		desertinfantry = { x = 2 y = 0 }
		anti_tank_brigade = { x = 2 y = 1 }
		artillery_brigade = { x = 2 y = 2 }
		artillery_brigade = { x = 3 y = 0 }
		artillery_brigade = { x = 3 y = 1 }
		artillery_brigade = { x = 3 y = 2 }
		artillery_brigade = { x = 3 y = 3 }
		anti_air_brigade = { x = 4 y = 0 } 
		anti_air_brigade = { x = 4 y = 1 }

	}
	support = {
		engineer = { x = 0 y = 0 } 	# (semi-mot) Engineer bn
		recon = { x = 0 y = 1 } 		# Recon bn had 16 L tanks, 10 ACs, 1x mot inf co #Eng and recon removed and they seem rather OP. Could revisit if balance changes
		logistics_company { x = 0 y = 2 }
		artillery = { x = 0 y = 3 }
		anti_air = { x = 0 y = 4 }		
	}
}

division_template = {
	name = "Mountain Infantry Division"

	regiments = {
		mountaineers = { x = 0 y = 0 }
		mountaineers = { x = 0 y = 1 }
		mountaineers = { x = 0 y = 2 }
		mountaineers = { x = 0 y = 3 }
		mountaineers = { x = 0 y = 4 }
		mountaineers = { x = 1 y = 0 }
		mountaineers = { x = 1 y = 1 }
		mountaineers = { x = 1 y = 2 }
		mountaineers = { x = 1 y = 3 }
		mountaineers = { x = 1 y = 4 }
		mountaineers = { x = 2 y = 0 }
		anti_tank_brigade = { x = 2 y = 1 }
		artillery_brigade = { x = 2 y = 2 }
		artillery_brigade = { x = 3 y = 0 }
		artillery_brigade = { x = 3 y = 1 }
		artillery_brigade = { x = 3 y = 2 }
		artillery_brigade = { x = 3 y = 3 }
		anti_air_brigade = { x = 4 y = 0 } 
		anti_air_brigade = { x = 4 y = 1 }

	}
	support = {
		engineer = { x = 0 y = 0 } 	# (semi-mot) Engineer bn
		recon = { x = 0 y = 1 } 		# Recon bn had 16 L tanks, 10 ACs, 1x mot inf co #Eng and recon removed and they seem rather OP. Could revisit if balance changes
		logistics_company { x = 0 y = 2 }
		artillery = { x = 0 y = 3 }
		anti_air = { x = 0 y = 4 }		
	}
}

division_template = {
	name = "Light Armored-Division"

	regiments = {
		motorized = { x = 0 y = 0 }
	    motorized = { x = 0 y = 1 }
		motorized = { x = 0 y = 2 }
		mot_anti_air_brigade = { x = 0 y = 3 }
		mot_anti_air_brigade = { x = 0 y = 4 }
		
		motorized = { x = 1 y = 0 }
		motorized = { x = 1 y = 1 }
		motorized = { x = 1 y = 2 }
		motorized = { x = 1 y = 3 }
	    
		light_armor = { x = 2 y = 0 }
		light_armor = { x = 2 y = 1 }
		light_armor = { x = 2 y = 2 }
		light_armor = { x = 2 y = 3 }
		light_armor = { x = 3 y = 0 }
		light_armor = { x = 3 y = 1 }
		light_armor = { x = 3 y = 2 }
		light_armor = { x = 3 y = 3 }
		light_armor = { x = 4 y = 0 }
		light_armor = { x = 4 y = 1 }
		light_armor = { x = 4 y = 2 }
		light_armor = { x = 4 y = 3 }

	}
	support = {
        engineer = { x = 0 y = 0 }
        mot_recon = { x = 0 y = 1 }
		signal_company { x = 0 y = 2 } 
		logistics_company { x = 0 y = 3 }
	}
}

division_template = {
	name = "Medium Armored-Division"

	regiments = {
		motorized = { x = 0 y = 0 }
	    motorized = { x = 0 y = 1 }
		motorized = { x = 0 y = 2 }
		mot_anti_air_brigade = { x = 0 y = 3 }
		mot_anti_air_brigade = { x = 0 y = 4 }
		
		motorized = { x = 1 y = 0 }
		motorized = { x = 1 y = 1 }
		motorized = { x = 1 y = 2 }
		motorized = { x = 1 y = 3 }
	    
		medium_armor = { x = 2 y = 0 }
		medium_armor = { x = 2 y = 1 }
		medium_armor = { x = 2 y = 2 }
		medium_armor = { x = 2 y = 3 }
		medium_armor = { x = 3 y = 0 }
		medium_armor = { x = 3 y = 1 }
		medium_armor = { x = 3 y = 2 }
		medium_armor = { x = 3 y = 3 }
		medium_armor = { x = 4 y = 0 }
		medium_armor = { x = 4 y = 1 }
		medium_armor = { x = 4 y = 2 }
		medium_armor = { x = 4 y = 3 }

	}
	support = {
        engineer = { x = 0 y = 0 }
        mot_recon = { x = 0 y = 1 }
		signal_company { x = 0 y = 2 } 
		logistics_company { x = 0 y = 3 }
	}
}

division_template = {
	name = "Heavy Armored-Division"

	regiments = {
		motorized = { x = 0 y = 0 }
	    motorized = { x = 0 y = 1 }
		motorized = { x = 0 y = 2 }
		mot_anti_air_brigade = { x = 0 y = 3 }
		mot_anti_air_brigade = { x = 0 y = 4 }
		
		motorized = { x = 1 y = 0 }
		motorized = { x = 1 y = 1 }
		motorized = { x = 1 y = 2 }
		motorized = { x = 1 y = 3 }
	    
		heavy_armor = { x = 2 y = 0 }
		heavy_armor = { x = 2 y = 1 }
		heavy_armor = { x = 2 y = 2 }
		heavy_armor = { x = 2 y = 3 }
		heavy_armor = { x = 3 y = 0 }
		heavy_armor = { x = 3 y = 1 }
		heavy_armor = { x = 3 y = 2 }
		heavy_armor = { x = 3 y = 3 }
		heavy_armor = { x = 4 y = 0 }
		heavy_armor = { x = 4 y = 1 }
		heavy_armor = { x = 4 y = 2 }
		heavy_armor = { x = 4 y = 3 }

	}
	support = {
        engineer = { x = 0 y = 0 }
        mot_recon = { x = 0 y = 1 }
		signal_company { x = 0 y = 2 } 
		logistics_company { x = 0 y = 3 }
	}
}

division_template = {
	name = "Garrison Brigade"

	regiments = {
		infantry = { x = 0 y = 0 }
		infantry = { x = 0 y = 1 }
		infantry = { x = 0 y = 2 }
		infantry = { x = 0 y = 3 }
		infantry = { x = 0 y = 4 }
		infantry = { x = 1 y = 0 }
		infantry = { x = 1 y = 1 }
		infantry = { x = 1 y = 2 }
		infantry = { x = 1 y = 3 }
		infantry = { x = 1 y = 4 }
	}
	support = {
		engineer = { x = 0 y = 0 }
		
	}
	priority = 0
}

##### OOB #####
units = {
	division= {
		name = "Use this division to select generals' traits"
		location = 10400
		division_template = "Infantry Division"
		start_experience_factor = 0.3
		start_equipment_factor = 0.01
	}
}



##### Starting Production #####
instant_effect = {
	add_equipment_production = {
		equipment = {
			type = infantry_equipment_1
			creator = "SAF"
		}
		requested_factories = 1
		progress = 0.20
		efficiency = 100
	}
	add_equipment_production = {
		equipment = {
			type = anti_air_equipment_1
			creator = "SAF"
		}
		requested_factories = 1
		progress = 0.3
		efficiency = 50
	}
	add_equipment_production = {
		equipment = {
			type = artillery_equipment_1
			creator = "SAF" 
		}
		requested_factories = 1
		progress = 0.3
		efficiency = 50
	}		
	add_equipment_production = {
		equipment = {
			type = support_equipment_1
			creator = "SAF" 
		}
		requested_factories = 4
		progress = 0.3
		efficiency = 50
	}
	add_equipment_production = {
		equipment = {
			type = motorized_equipment_1
			creator = "SAF" 
		}
		requested_factories = 3
		progress = 0.4
		efficiency = 50
	}
	add_equipment_production = {
		equipment = {
			type = gw_armored_car_equipment
			creator = "SAF" 
		}
		requested_factories = 1
		progress = 0.3
		efficiency = 50
	}		
}